Andares_Elevador_S1/simulation/qsim/Andares_Elevador_S1.msim.vcd
$comment
	File created using the following command:
		vcd file Andares_Elevador_S1.msim.vcd -direction
$end
$date
	Mon Mar 27 21:34:39 2023
$end
$version
	ModelSim Version 10.5b
$end
$timescale
	1ps
$end

$scope module Andares_Elevador_S1_vlg_vec_tst $end
$var reg 1 ! B0 $end
$var reg 1 " B1 $end
$var reg 1 # B2 $end
$var reg 1 $ B3 $end
$var reg 1 % B4 $end
$var wire 1 & S1 $end

$scope module i1 $end
$var wire 1 ' gnd $end
$var wire 1 ( vcc $end
$var wire 1 ) unknown $end
$var tri1 1 * devclrn $end
$var tri1 1 + devpor $end
$var tri1 1 , devoe $end
$var wire 1 - S1~output_o $end
$var wire 1 . B1~input_o $end
$var wire 1 / B0~input_o $end
$var wire 1 0 B4~input_o $end
$var wire 1 1 B3~input_o $end
$var wire 1 2 B2~input_o $end
$var wire 1 3 inst15~0_combout $end
$var wire 1 4 inst15~1_combout $end
$upscope $end
$upscope $end
$enddefinitions $end
#0
$dumpvars
0!
0"
0#
0$
0%
0&
0'
1(
x)
1*
1+
1,
0-
0.
0/
00
01
02
03
04
$end
#10000
1!
1/
#20000
1"
0!
1.
0/
13
14
1-
1&
#30000
1!
1/
04
0-
0&
#40000
1#
0"
0!
12
0.
0/
14
1-
1&
#50000
1!
1/
#60000
1"
0!
1.
0/
#70000
1!
1/
04
0-
0&
#80000
1$
0#
0"
0!
11
02
0.
0/
03
14
1-
1&
04
0-
0&
#90000
1!
1/
#100000
1"
0!
1.
0/
13
14
1-
1&
#110000
1!
1/
04
0-
0&
#120000
1#
0"
0!
12
0.
0/
03
14
1-
1&
04
0-
0&
#130000
1!
1/
#140000
1"
0!
1.
0/
#150000
1!
1/
14
1-
1&
#160000
1%
0$
0#
0"
0!
10
01
02
0.
0/
04
0-
0&
#170000
1!
1/
#180000
1"
0!
1.
0/
#190000
1!
1/
14
1-
1&
#200000
1#
0"
0!
12
0.
0/
13
04
0-
0&
14
1-
1&
#210000
1!
1/
04
0-
0&
#220000
1"
0!
1.
0/
14
1-
1&
#230000
1!
1/
#240000
1$
0#
0"
0!
11
02
0.
0/
03
04
0-
0&
#250000
1!
1/
#260000
1"
0!
1.
0/
#270000
1!
1/
14
1-
1&
#280000
1#
0"
0!
12
0.
0/
04
0-
0&
#290000
1!
1/
#300000
1"
0!
1.
0/
13
14
1-
1&
#310000
1!
1/
#320000
0%
0$
0#
0"
0!
00
01
02
0.
0/
03
04
0-
0&
#330000
1!
1/
#340000
1"
0!
1.
0/
13
14
1-
1&
#350000
1!
1/
04
0-
0&
#360000
1#
0"
0!
12
0.
0/
14
1-
1&
#370000
1!
1/
#380000
1"
0!
1.
0/
#390000
1!
1/
04
0-
0&
#400000
1$
0#
0"
0!
11
02
0.
0/
03
14
1-
1&
04
0-
0&
#410000
1!
1/
#420000
1"
0!
1.
0/
13
14
1-
1&
#430000
1!
1/
04
0-
0&
#440000
1#
0"
0!
12
0.
0/
03
14
1-
1&
04
0-
0&
#450000
1!
1/
#460000
1"
0!
1.
0/
#470000
1!
1/
14
1-
1&
#480000
1%
0$
0#
0"
0!
10
01
02
0.
0/
04
0-
0&
#490000
1!
1/
#500000
1"
0!
1.
0/
#510000
1!
1/
14
1-
1&
#520000
1#
0"
0!
12
0.
0/
13
04
0-
0&
14
1-
1&
#530000
1!
1/
04
0-
0&
#540000
1"
0!
1.
0/
14
1-
1&
#550000
1!
1/
#560000
1$
0#
0"
0!
11
02
0.
0/
03
04
0-
0&
#570000
1!
1/
#580000
1"
0!
1.
0/
#590000
1!
1/
14
1-
1&
#600000
1#
0"
0!
12
0.
0/
04
0-
0&
#610000
1!
1/
#620000
1"
0!
1.
0/
13
14
1-
1&
#630000
1!
1/
#640000
0%
0$
0#
0"
0!
00
01
02
0.
0/
03
04
0-
0&
#650000
1!
1/
#660000
1"
0!
1.
0/
13
14
1-
1&
#670000
1!
1/
04
0-
0&
#680000
1#
0"
0!
12
0.
0/
14
1-
1&
#690000
1!
1/
#700000
1"
0!
1.
0/
#710000
1!
1/
04
0-
0&
#720000
1$
0#
0"
0!
11
02
0.
0/
03
14
1-
1&
04
0-
0&
#730000
1!
1/
#740000
1"
0!
1.
0/
13
14
1-
1&
#750000
1!
1/
04
0-
0&
#760000
1#
0"
0!
12
0.
0/
03
14
1-
1&
04
0-
0&
#770000
1!
1/
#780000
1"
0!
1.
0/
#790000
1!
1/
14
1-
1&
#800000
1%
0$
0#
0"
0!
10
01
02
0.
0/
04
0-
0&
#810000
1!
1/
#820000
1"
0!
1.
0/
#830000
1!
1/
14
1-
1&
#840000
1#
0"
0!
12
0.
0/
13
04
0-
0&
14
1-
1&
#850000
1!
1/
04
0-
0&
#860000
1"
0!
1.
0/
14
1-
1&
#870000
1!
1/
#880000
1$
0#
0"
0!
11
02
0.
0/
03
04
0-
0&
#890000
1!
1/
#900000
1"
0!
1.
0/
#910000
1!
1/
14
1-
1&
#920000
1#
0"
0!
12
0.
0/
04
0-
0&
#930000
1!
1/
#940000
1"
0!
1.
0/
13
14
1-
1&
#950000
1!
1/
#960000
0%
0$
0#
0"
0!
00
01
02
0.
0/
03
04
0-
0&
#970000
1!
1/
#980000
1"
0!
1.
0/
13
14
1-
1&
#990000
1!
1/
04
0-
0&
