Teste/simulation/qsim/Teste.msim.vcd
$comment
	File created using the following command:
		vcd file Teste.msim.vcd -direction
$end
$date
	Tue May 23 20:55:31 2023
$end
$version
	ModelSim Version 10.5b
$end
$timescale
	1ps
$end

$scope module Teste_vlg_vec_tst $end
$var reg 1 ! ACT $end
$var reg 1 " CLK $end
$var reg 1 # EN $end
$var wire 1 $ SA [2] $end
$var wire 1 % SA [1] $end
$var wire 1 & SA [0] $end

$scope module i1 $end
$var wire 1 ' gnd $end
$var wire 1 ( vcc $end
$var wire 1 ) unknown $end
$var tri1 1 * devclrn $end
$var tri1 1 + devpor $end
$var tri1 1 , devoe $end
$var wire 1 - SA[2]~output_o $end
$var wire 1 . SA[1]~output_o $end
$var wire 1 / SA[0]~output_o $end
$var wire 1 0 CLK~input_o $end
$var wire 1 1 CLK~inputclkctrl_outclk $end
$var wire 1 2 EN~input_o $end
$var wire 1 3 ACT~input_o $end
$var wire 1 4 inst|Selector4~0_combout $end
$var wire 1 5 inst|fstate.A4~q $end
$var wire 1 6 inst|fstate.B~feeder_combout $end
$var wire 1 7 inst|fstate.B~q $end
$var wire 1 8 inst|Selector0~0_combout $end
$var wire 1 9 inst|Selector0~1_combout $end
$var wire 1 : inst|fstate.T~q $end
$var wire 1 ; inst|Selector1~0_combout $end
$var wire 1 < inst|Selector1~1_combout $end
$var wire 1 = inst|fstate.A1~q $end
$var wire 1 > inst|Selector2~0_combout $end
$var wire 1 ? inst|Selector2~1_combout $end
$var wire 1 @ inst|fstate.A2~q $end
$var wire 1 A inst|Selector3~0_combout $end
$var wire 1 B inst|Selector3~1_combout $end
$var wire 1 C inst|fstate.A3~q $end
$var wire 1 D inst|SA2~0_combout $end
$var wire 1 E inst|SA1~0_combout $end
$var wire 1 F inst|WideOr5~0_combout $end
$upscope $end
$upscope $end
$enddefinitions $end
#0
$dumpvars
0!
0"
1#
0&
0%
0$
0'
1(
x)
1*
1+
1,
0-
0.
0/
00
01
12
03
04
05
16
07
08
19
0:
0;
0<
0=
0>
0?
0@
0A
0B
0C
0D
0E
1F
$end
#20000
1"
10
11
1:
17
18
0F
09
1/
1&
19
#40000
1!
0"
13
00
01
1;
08
1<
09
#60000
0!
1"
03
10
11
0;
18
0<
19
1=
0:
1F
1E
1.
0/
0&
1%
#80000
1!
0"
13
00
01
1>
08
1?
09
#100000
0!
1"
03
10
11
0>
18
0?
19
1@
0=
1;
0F
08
1/
1&
1<
09
#120000
0"
00
01
#140000
1"
10
11
0@
1=
0;
1F
18
0/
0&
0<
19
#160000
1!
0"
13
00
01
1>
08
1?
09
#180000
0!
1"
03
10
11
0>
18
0?
19
1@
0=
1;
0F
08
1/
1&
1<
09
#200000
0"
00
01
#220000
1"
10
11
0@
1=
0;
1F
18
0/
0&
0<
19
#240000
0"
00
01
#260000
1"
10
11
0=
1:
0F
0E
0.
1/
1&
0%
#280000
0"
00
01
#300000
1"
10
11
#320000
0"
00
01
#340000
1"
10
11
#360000
0"
00
01
#380000
1"
10
11
#400000
0"
00
01
#420000
1"
10
11
#440000
0"
00
01
#460000
1"
10
11
#480000
0"
00
01
#500000
1"
10
11
#520000
0"
00
01
#540000
1"
10
11
#560000
0"
00
01
#580000
1"
10
11
#600000
0"
00
01
#620000
1"
10
11
#640000
0"
00
01
#660000
1"
10
11
#680000
0"
00
01
#700000
1"
10
11
#720000
0"
00
01
#740000
1"
10
11
#760000
0"
00
01
#780000
1"
10
11
#800000
0"
00
01
#820000
1"
10
11
#840000
0"
00
01
#860000
1"
10
11
#880000
0"
00
01
#900000
1"
10
11
#920000
0"
00
01
#940000
1"
10
11
#960000
0"
00
01
#980000
1"
10
11
