Valor_Serial_Paralelo/simulation/qsim/Valor_Serial_Paralelo.msim.vcd
$comment
	File created using the following command:
		vcd file Valor_Serial_Paralelo.msim.vcd -direction
$end
$date
	Wed Apr 26 19:45:55 2023
$end
$version
	ModelSim Version 10.5b
$end
$timescale
	1ps
$end

$scope module Valor_Serial_Paralelo_vlg_vec_tst $end
$var reg 3 ! VS [2:0] $end
$var wire 1 " VP [2] $end
$var wire 1 # VP [1] $end
$var wire 1 $ VP [0] $end

$scope module i1 $end
$var wire 1 % gnd $end
$var wire 1 & vcc $end
$var wire 1 ' unknown $end
$var tri1 1 ( devclrn $end
$var tri1 1 ) devpor $end
$var tri1 1 * devoe $end
$var wire 1 + VP[2]~output_o $end
$var wire 1 , VP[1]~output_o $end
$var wire 1 - VP[0]~output_o $end
$var wire 1 . VS[2]~input_o $end
$var wire 1 / VS[1]~input_o $end
$var wire 1 0 VS[0]~input_o $end
$upscope $end
$upscope $end
$enddefinitions $end
#0
$dumpvars
b0 !
0$
0#
0"
0%
1&
x'
1(
1)
1*
0+
0,
0-
0.
0/
00
$end
#10000
b1 !
10
1-
1$
#20000
b11 !
b10 !
00
1/
1,
0-
0$
1#
#30000
b11 !
10
1-
1$
#40000
b111 !
b101 !
b100 !
00
0/
1.
1+
0,
0-
0$
0#
1"
#50000
b101 !
10
1-
1$
#60000
b111 !
b110 !
00
1/
1,
0-
0$
1#
#70000
b111 !
10
1-
1$
#80000
b11 !
b1 !
b0 !
00
0/
0.
0+
0,
0-
0$
0#
0"
#90000
b1 !
10
1-
1$
#100000
b11 !
b10 !
00
1/
1,
0-
0$
1#
#110000
b11 !
10
1-
1$
#120000
b111 !
b101 !
b100 !
00
0/
1.
1+
0,
0-
0$
0#
1"
#130000
b101 !
10
1-
1$
#140000
b111 !
b110 !
00
1/
1,
0-
0$
1#
#150000
b111 !
10
1-
1$
#160000
b11 !
b1 !
b0 !
00
0/
0.
0+
0,
0-
0$
0#
0"
#170000
b1 !
10
1-
1$
#180000
b11 !
b10 !
00
1/
1,
0-
0$
1#
#190000
b11 !
10
1-
1$
#200000
b111 !
b101 !
b100 !
00
0/
1.
1+
0,
0-
0$
0#
1"
#210000
b101 !
10
1-
1$
#220000
b111 !
b110 !
00
1/
1,
0-
0$
1#
#230000
b111 !
10
1-
1$
#240000
b11 !
b1 !
b0 !
00
0/
0.
0+
0,
0-
0$
0#
0"
#250000
b1 !
10
1-
1$
#260000
b11 !
b10 !
00
1/
1,
0-
0$
1#
#270000
b11 !
10
1-
1$
#280000
b111 !
b101 !
b100 !
00
0/
1.
1+
0,
0-
0$
0#
1"
#290000
b101 !
10
1-
1$
#300000
b111 !
b110 !
00
1/
1,
0-
0$
1#
#310000
b111 !
10
1-
1$
#320000
b11 !
b1 !
b0 !
00
0/
0.
0+
0,
0-
0$
0#
0"
#330000
b1 !
10
1-
1$
#340000
b11 !
b10 !
00
1/
1,
0-
0$
1#
#350000
b11 !
10
1-
1$
#360000
b111 !
b101 !
b100 !
00
0/
1.
1+
0,
0-
0$
0#
1"
#370000
b101 !
10
1-
1$
#380000
b111 !
b110 !
00
1/
1,
0-
0$
1#
#390000
b111 !
10
1-
1$
#400000
b11 !
b1 !
b0 !
00
0/
0.
0+
0,
0-
0$
0#
0"
#410000
b1 !
10
1-
1$
#420000
b11 !
b10 !
00
1/
1,
0-
0$
1#
#430000
b11 !
10
1-
1$
#440000
b111 !
b101 !
b100 !
00
0/
1.
1+
0,
0-
0$
0#
1"
#450000
b101 !
10
1-
1$
#460000
b111 !
b110 !
00
1/
1,
0-
0$
1#
#470000
b111 !
10
1-
1$
#480000
b11 !
b1 !
b0 !
00
0/
0.
0+
0,
0-
0$
0#
0"
#490000
b1 !
10
1-
1$
#500000
b11 !
b10 !
00
1/
1,
0-
0$
1#
#510000
b11 !
10
1-
1$
#520000
b111 !
b101 !
b100 !
00
0/
1.
1+
0,
0-
0$
0#
1"
#530000
b101 !
10
1-
1$
#540000
b111 !
b110 !
00
1/
1,
0-
0$
1#
#550000
b111 !
10
1-
1$
#560000
b11 !
b1 !
b0 !
00
0/
0.
0+
0,
0-
0$
0#
0"
#570000
b1 !
10
1-
1$
#580000
b11 !
b10 !
00
1/
1,
0-
0$
1#
#590000
b11 !
10
1-
1$
#600000
b111 !
b101 !
b100 !
00
0/
1.
1+
0,
0-
0$
0#
1"
#610000
b101 !
10
1-
1$
#620000
b111 !
b110 !
00
1/
1,
0-
0$
1#
#630000
b111 !
10
1-
1$
#640000
b11 !
b1 !
b0 !
00
0/
0.
0+
0,
0-
0$
0#
0"
#650000
b1 !
10
1-
1$
#660000
b11 !
b10 !
00
1/
1,
0-
0$
1#
#670000
b11 !
10
1-
1$
#680000
b111 !
b101 !
b100 !
00
0/
1.
1+
0,
0-
0$
0#
1"
#690000
b101 !
10
1-
1$
#700000
b111 !
b110 !
00
1/
1,
0-
0$
1#
#710000
b111 !
10
1-
1$
#720000
b11 !
b1 !
b0 !
00
0/
0.
0+
0,
0-
0$
0#
0"
#730000
b1 !
10
1-
1$
#740000
b11 !
b10 !
00
1/
1,
0-
0$
1#
#750000
b11 !
10
1-
1$
#760000
b111 !
b101 !
b100 !
00
0/
1.
1+
0,
0-
0$
0#
1"
#770000
b101 !
10
1-
1$
#780000
b111 !
b110 !
00
1/
1,
0-
0$
1#
#790000
b111 !
10
1-
1$
#800000
b11 !
b1 !
b0 !
00
0/
0.
0+
0,
0-
0$
0#
0"
#810000
b1 !
10
1-
1$
#820000
b11 !
b10 !
00
1/
1,
0-
0$
1#
#830000
b11 !
10
1-
1$
#840000
b111 !
b101 !
b100 !
00
0/
1.
1+
0,
0-
0$
0#
1"
#850000
b101 !
10
1-
1$
#860000
b111 !
b110 !
00
1/
1,
0-
0$
1#
#870000
b111 !
10
1-
1$
#880000
b11 !
b1 !
b0 !
00
0/
0.
0+
0,
0-
0$
0#
0"
#890000
b1 !
10
1-
1$
#900000
b11 !
b10 !
00
1/
1,
0-
0$
1#
#910000
b11 !
10
1-
1$
#920000
b111 !
b101 !
b100 !
00
0/
1.
1+
0,
0-
0$
0#
1"
#930000
b101 !
10
1-
1$
#940000
b111 !
b110 !
00
1/
1,
0-
0$
1#
#950000
b111 !
10
1-
1$
#960000
b11 !
b1 !
b0 !
00
0/
0.
0+
0,
0-
0$
0#
0"
#970000
b1 !
10
1-
1$
#980000
b11 !
b10 !
00
1/
1,
0-
0$
1#
#990000
b11 !
10
1-
1$
