DivFreq50M_v2/DivFreq50M_v2/simulation/qsim/DIV_50MHz_to_1Hz.msim.vcd
$comment
	File created using the following command:
		vcd file DIV_50MHz_to_1Hz.msim.vcd -direction
$end
$date
	Thu Feb 16 16:34:10 2023
$end
$version
	ModelSim Version 2020.1
$end
$timescale
	1ps
$end

$scope module DIV_50MHz_to_1Hz_vlg_vec_tst $end
$var reg 1 ! Clock $end
$var reg 1 " pin_name1 $end
$var wire 1 # pin_name2 $end
$var wire 1 $ Q [25] $end
$var wire 1 % Q [24] $end
$var wire 1 & Q [23] $end
$var wire 1 ' Q [22] $end
$var wire 1 ( Q [21] $end
$var wire 1 ) Q [20] $end
$var wire 1 * Q [19] $end
$var wire 1 + Q [18] $end
$var wire 1 , Q [17] $end
$var wire 1 - Q [16] $end
$var wire 1 . Q [15] $end
$var wire 1 / Q [14] $end
$var wire 1 0 Q [13] $end
$var wire 1 1 Q [12] $end
$var wire 1 2 Q [11] $end
$var wire 1 3 Q [10] $end
$var wire 1 4 Q [9] $end
$var wire 1 5 Q [8] $end
$var wire 1 6 Q [7] $end
$var wire 1 7 Q [6] $end
$var wire 1 8 Q [5] $end
$var wire 1 9 Q [4] $end
$var wire 1 : Q [3] $end
$var wire 1 ; Q [2] $end
$var wire 1 < Q [1] $end
$var wire 1 = Q [0] $end
$var wire 1 > T $end

$scope module i1 $end
$var wire 1 ? gnd $end
$var wire 1 @ vcc $end
$var wire 1 A unknown $end
$var tri1 1 B devclrn $end
$var tri1 1 C devpor $end
$var tri1 1 D devoe $end
$var wire 1 E pin_name1~input_o $end
$var wire 1 F pin_name2~output_o $end
$var wire 1 G T~output_o $end
$var wire 1 H Q[25]~output_o $end
$var wire 1 I Q[24]~output_o $end
$var wire 1 J Q[23]~output_o $end
$var wire 1 K Q[22]~output_o $end
$var wire 1 L Q[21]~output_o $end
$var wire 1 M Q[20]~output_o $end
$var wire 1 N Q[19]~output_o $end
$var wire 1 O Q[18]~output_o $end
$var wire 1 P Q[17]~output_o $end
$var wire 1 Q Q[16]~output_o $end
$var wire 1 R Q[15]~output_o $end
$var wire 1 S Q[14]~output_o $end
$var wire 1 T Q[13]~output_o $end
$var wire 1 U Q[12]~output_o $end
$var wire 1 V Q[11]~output_o $end
$var wire 1 W Q[10]~output_o $end
$var wire 1 X Q[9]~output_o $end
$var wire 1 Y Q[8]~output_o $end
$var wire 1 Z Q[7]~output_o $end
$var wire 1 [ Q[6]~output_o $end
$var wire 1 \ Q[5]~output_o $end
$var wire 1 ] Q[4]~output_o $end
$var wire 1 ^ Q[3]~output_o $end
$var wire 1 _ Q[2]~output_o $end
$var wire 1 ` Q[1]~output_o $end
$var wire 1 a Q[0]~output_o $end
$var wire 1 b Clock~input_o $end
$var wire 1 c Clock~inputclkctrl_outclk $end
$var wire 1 d inst|auto_generated|counter_comb_bita0~combout $end
$var wire 1 e inst|auto_generated|counter_comb_bita3~COUT $end
$var wire 1 f inst|auto_generated|counter_comb_bita4~combout $end
$var wire 1 g inst|auto_generated|counter_comb_bita4~COUT $end
$var wire 1 h inst|auto_generated|counter_comb_bita5~combout $end
$var wire 1 i inst|auto_generated|counter_comb_bita5~COUT $end
$var wire 1 j inst|auto_generated|counter_comb_bita6~combout $end
$var wire 1 k inst|auto_generated|counter_comb_bita6~COUT $end
$var wire 1 l inst|auto_generated|counter_comb_bita7~combout $end
$var wire 1 m inst|auto_generated|counter_comb_bita7~COUT $end
$var wire 1 n inst|auto_generated|counter_comb_bita8~combout $end
$var wire 1 o inst|auto_generated|counter_comb_bita8~COUT $end
$var wire 1 p inst|auto_generated|counter_comb_bita9~combout $end
$var wire 1 q inst|auto_generated|counter_comb_bita9~COUT $end
$var wire 1 r inst|auto_generated|counter_comb_bita10~combout $end
$var wire 1 s inst|auto_generated|counter_comb_bita10~COUT $end
$var wire 1 t inst|auto_generated|counter_comb_bita11~combout $end
$var wire 1 u inst|auto_generated|counter_comb_bita11~COUT $end
$var wire 1 v inst|auto_generated|counter_comb_bita12~combout $end
$var wire 1 w inst|auto_generated|counter_comb_bita12~COUT $end
$var wire 1 x inst|auto_generated|counter_comb_bita13~combout $end
$var wire 1 y inst3|auto_generated|ageb~5_combout $end
$var wire 1 z inst|auto_generated|counter_comb_bita13~COUT $end
$var wire 1 { inst|auto_generated|counter_comb_bita14~combout $end
$var wire 1 | inst|auto_generated|counter_comb_bita14~COUT $end
$var wire 1 } inst|auto_generated|counter_comb_bita15~combout $end
$var wire 1 ~ inst|auto_generated|counter_comb_bita15~COUT $end
$var wire 1 !! inst|auto_generated|counter_comb_bita16~combout $end
$var wire 1 "! inst|auto_generated|counter_comb_bita16~COUT $end
$var wire 1 #! inst|auto_generated|counter_comb_bita17~combout $end
$var wire 1 $! inst|auto_generated|counter_comb_bita17~COUT $end
$var wire 1 %! inst|auto_generated|counter_comb_bita18~combout $end
$var wire 1 &! inst|auto_generated|counter_comb_bita18~COUT $end
$var wire 1 '! inst|auto_generated|counter_comb_bita19~combout $end
$var wire 1 (! inst|auto_generated|counter_comb_bita19~COUT $end
$var wire 1 )! inst|auto_generated|counter_comb_bita20~combout $end
$var wire 1 *! inst|auto_generated|counter_comb_bita20~COUT $end
$var wire 1 +! inst|auto_generated|counter_comb_bita21~combout $end
$var wire 1 ,! inst3|auto_generated|ageb~2_combout $end
$var wire 1 -! inst3|auto_generated|ageb~3_combout $end
$var wire 1 .! inst3|auto_generated|ageb~0_combout $end
$var wire 1 /! inst|auto_generated|counter_comb_bita21~COUT $end
$var wire 1 0! inst|auto_generated|counter_comb_bita22~combout $end
$var wire 1 1! inst|auto_generated|counter_comb_bita22~COUT $end
$var wire 1 2! inst|auto_generated|counter_comb_bita23~combout $end
$var wire 1 3! inst|auto_generated|counter_comb_bita23~COUT $end
$var wire 1 4! inst|auto_generated|counter_comb_bita24~combout $end
$var wire 1 5! inst|auto_generated|counter_comb_bita24~COUT $end
$var wire 1 6! inst|auto_generated|counter_comb_bita25~combout $end
$var wire 1 7! inst3|auto_generated|ageb~1_combout $end
$var wire 1 8! inst3|auto_generated|ageb~4_combout $end
$var wire 1 9! inst3|auto_generated|ageb~7_combout $end
$var wire 1 :! inst3|auto_generated|ageb~6_combout $end
$var wire 1 ;! inst3|auto_generated|ageb~8_combout $end
$var wire 1 <! inst|auto_generated|counter_comb_bita0~COUT $end
$var wire 1 =! inst|auto_generated|counter_comb_bita1~combout $end
$var wire 1 >! inst|auto_generated|counter_comb_bita1~COUT $end
$var wire 1 ?! inst|auto_generated|counter_comb_bita2~combout $end
$var wire 1 @! inst|auto_generated|counter_comb_bita2~COUT $end
$var wire 1 A! inst|auto_generated|counter_comb_bita3~combout $end
$var wire 1 B! inst9~0_combout $end
$var wire 1 C! inst9~q $end
$var wire 1 D! inst|auto_generated|counter_reg_bit [25] $end
$var wire 1 E! inst|auto_generated|counter_reg_bit [24] $end
$var wire 1 F! inst|auto_generated|counter_reg_bit [23] $end
$var wire 1 G! inst|auto_generated|counter_reg_bit [22] $end
$var wire 1 H! inst|auto_generated|counter_reg_bit [21] $end
$var wire 1 I! inst|auto_generated|counter_reg_bit [20] $end
$var wire 1 J! inst|auto_generated|counter_reg_bit [19] $end
$var wire 1 K! inst|auto_generated|counter_reg_bit [18] $end
$var wire 1 L! inst|auto_generated|counter_reg_bit [17] $end
$var wire 1 M! inst|auto_generated|counter_reg_bit [16] $end
$var wire 1 N! inst|auto_generated|counter_reg_bit [15] $end
$var wire 1 O! inst|auto_generated|counter_reg_bit [14] $end
$var wire 1 P! inst|auto_generated|counter_reg_bit [13] $end
$var wire 1 Q! inst|auto_generated|counter_reg_bit [12] $end
$var wire 1 R! inst|auto_generated|counter_reg_bit [11] $end
$var wire 1 S! inst|auto_generated|counter_reg_bit [10] $end
$var wire 1 T! inst|auto_generated|counter_reg_bit [9] $end
$var wire 1 U! inst|auto_generated|counter_reg_bit [8] $end
$var wire 1 V! inst|auto_generated|counter_reg_bit [7] $end
$var wire 1 W! inst|auto_generated|counter_reg_bit [6] $end
$var wire 1 X! inst|auto_generated|counter_reg_bit [5] $end
$var wire 1 Y! inst|auto_generated|counter_reg_bit [4] $end
$var wire 1 Z! inst|auto_generated|counter_reg_bit [3] $end
$var wire 1 [! inst|auto_generated|counter_reg_bit [2] $end
$var wire 1 \! inst|auto_generated|counter_reg_bit [1] $end
$var wire 1 ]! inst|auto_generated|counter_reg_bit [0] $end
$upscope $end
$upscope $end
$enddefinitions $end
#0
$dumpvars
0!
x"
0#
0=
0<
0;
0:
09
08
07
06
05
04
03
02
01
00
0/
0.
0-
0,
0+
0*
0)
0(
0'
0&
0%
0$
0>
0?
1@
xA
1B
1C
1D
xE
0F
0G
0H
0I
0J
0K
0L
0M
0N
0O
0P
0Q
0R
0S
0T
0U
0V
0W
0X
0Y
0Z
0[
0\
0]
0^
0_
0`
0a
0b
0c
1d
1e
0f
0g
0h
1i
0j
0k
0l
1m
0n
0o
0p
1q
0r
0s
0t
1u
0v
0w
0x
0y
1z
0{
0|
0}
1~
0!!
0"!
0#!
1$!
0%!
0&!
0'!
1(!
0)!
0*!
0+!
0,!
0-!
0.!
1/!
00!
01!
02!
13!
04!
05!
06!
07!
08!
09!
0:!
0;!
0<!
0=!
1>!
0?!
0@!
0A!
1B!
0C!
0]!
0\!
0[!
0Z!
0Y!
0X!
0W!
0V!
0U!
0T!
0S!
0R!
0Q!
0P!
0O!
0N!
0M!
0L!
0K!
0J!
0I!
0H!
0G!
0F!
0E!
0D!
$end
#10000
1!
1b
1c
1]!
1a
1<!
1=
0d
1=!
#20000
0!
0b
0c
#30000
1!
1b
1c
1\!
0]!
0a
1`
0>!
0<!
1<
0=
0=!
1d
1>!
1?!
1=!
0?!
#40000
0!
0b
0c
#50000
1!
1b
1c
1]!
1a
1<!
1=
0d
0>!
0=!
1?!
#60000
0!
0b
0c
#70000
1!
1b
1c
1[!
0\!
0]!
0a
0`
1_
1@!
1>!
0<!
1;
0<
0=
0?!
1=!
1d
0@!
1A!
1?!
0=!
0A!
#80000
0!
0b
0c
#90000
1!
1b
1c
1]!
1a
1<!
1=
0d
1=!
#100000
0!
0b
0c
#110000
1!
1b
1c
1\!
0]!
0a
1`
0>!
0<!
1<
0=
0=!
1d
1@!
1>!
0?!
1=!
0@!
1A!
1?!
0A!
#120000
0!
0b
0c
#130000
1!
1b
1c
1]!
1a
1<!
1=
0d
0>!
0=!
1@!
0?!
1A!
#140000
0!
0b
0c
#150000
1!
1b
1c
1Z!
0[!
0\!
0]!
0a
0`
0_
1^
0e
0@!
1>!
0<!
1:
0;
0<
0=
0A!
1?!
1=!
1d
1e
1f
1A!
0?!
0=!
0f
1C!
1G
1>
0B!
#160000
0!
0b
0c
#170000
1!
1b
1c
1]!
1a
1.!
1<!
1=
0d
18!
1=!
1;!
0]!
0Z!
0^
0a
0.!
0<!
0=
0:
1d
0A!
08!
0=!
0;!
#180000
0!
0b
0c
#190000
1!
1b
1c
1]!
1a
1<!
1=
0d
1=!
#200000
0!
0b
0c
#210000
1!
1b
1c
1\!
0]!
0a
1`
0>!
0<!
1<
0=
0=!
1d
1>!
1?!
1=!
0?!
#220000
0!
0b
0c
#230000
1!
1b
1c
1]!
1a
1<!
1=
0d
0>!
0=!
1?!
#240000
0!
0b
0c
#250000
1!
1b
1c
1[!
0\!
0]!
0a
0`
1_
1@!
1>!
0<!
1;
0<
0=
0?!
1=!
1d
0@!
1A!
1?!
0=!
0A!
#260000
0!
0b
0c
#270000
1!
1b
1c
1]!
1a
1<!
1=
0d
1=!
#280000
0!
0b
0c
#290000
1!
1b
1c
1\!
0]!
0a
1`
0>!
0<!
1<
0=
0=!
1d
1@!
1>!
0?!
1=!
0@!
1A!
1?!
0A!
#300000
0!
0b
0c
#310000
1!
1b
1c
1]!
1a
1<!
1=
0d
0>!
0=!
1@!
0?!
1A!
#320000
0!
0b
0c
#330000
1!
1b
1c
1Z!
0[!
0\!
0]!
0a
0`
0_
1^
0e
0@!
1>!
0<!
1:
0;
0<
0=
0A!
1?!
1=!
1d
1e
1f
1A!
0?!
0=!
0f
0C!
0G
0>
1B!
#340000
0!
0b
0c
#350000
1!
1b
1c
1]!
1a
1.!
1<!
1=
0d
18!
1=!
1;!
0]!
0Z!
0^
0a
0.!
0<!
0=
0:
1d
0A!
08!
0=!
0;!
#360000
0!
0b
0c
#370000
1!
1b
1c
1]!
1a
1<!
1=
0d
1=!
#380000
0!
0b
0c
#390000
1!
1b
1c
1\!
0]!
0a
1`
0>!
0<!
1<
0=
0=!
1d
1>!
1?!
1=!
0?!
#400000
0!
0b
0c
#410000
1!
1b
1c
1]!
1a
1<!
1=
0d
0>!
0=!
1?!
#420000
0!
0b
0c
#430000
1!
1b
1c
1[!
0\!
0]!
0a
0`
1_
1@!
1>!
0<!
1;
0<
0=
0?!
1=!
1d
0@!
1A!
1?!
0=!
0A!
#440000
0!
0b
0c
#450000
1!
1b
1c
1]!
1a
1<!
1=
0d
1=!
#460000
0!
0b
0c
#470000
1!
1b
1c
1\!
0]!
0a
1`
0>!
0<!
1<
0=
0=!
1d
1@!
1>!
0?!
1=!
0@!
1A!
1?!
0A!
#480000
0!
0b
0c
#490000
1!
1b
1c
1]!
1a
1<!
1=
0d
0>!
0=!
1@!
0?!
1A!
#500000
0!
0b
0c
#510000
1!
1b
1c
1Z!
0[!
0\!
0]!
0a
0`
0_
1^
0e
0@!
1>!
0<!
1:
0;
0<
0=
0A!
1?!
1=!
1d
1e
1f
1A!
0?!
0=!
0f
1C!
1G
1>
0B!
#520000
0!
0b
0c
#530000
1!
1b
1c
1]!
1a
1.!
1<!
1=
0d
18!
1=!
1;!
0]!
0Z!
0^
0a
0.!
0<!
0=
0:
1d
0A!
08!
0=!
0;!
#540000
0!
0b
0c
#550000
1!
1b
1c
1]!
1a
1<!
1=
0d
1=!
#560000
0!
0b
0c
#570000
1!
1b
1c
1\!
0]!
0a
1`
0>!
0<!
1<
0=
0=!
1d
1>!
1?!
1=!
0?!
#580000
0!
0b
0c
#590000
1!
1b
1c
1]!
1a
1<!
1=
0d
0>!
0=!
1?!
#600000
0!
0b
0c
#610000
1!
1b
1c
1[!
0\!
0]!
0a
0`
1_
1@!
1>!
0<!
1;
0<
0=
0?!
1=!
1d
0@!
1A!
1?!
0=!
0A!
#620000
0!
0b
0c
#630000
1!
1b
1c
1]!
1a
1<!
1=
0d
1=!
#640000
0!
0b
0c
#650000
1!
1b
1c
1\!
0]!
0a
1`
0>!
0<!
1<
0=
0=!
1d
1@!
1>!
0?!
1=!
0@!
1A!
1?!
0A!
#660000
0!
0b
0c
#670000
1!
1b
1c
1]!
1a
1<!
1=
0d
0>!
0=!
1@!
0?!
1A!
#680000
0!
0b
0c
#690000
1!
1b
1c
1Z!
0[!
0\!
0]!
0a
0`
0_
1^
0e
0@!
1>!
0<!
1:
0;
0<
0=
0A!
1?!
1=!
1d
1e
1f
1A!
0?!
0=!
0f
0C!
0G
0>
1B!
#700000
0!
0b
0c
#710000
1!
1b
1c
1]!
1a
1.!
1<!
1=
0d
18!
1=!
1;!
0]!
0Z!
0^
0a
0.!
0<!
0=
0:
1d
0A!
08!
0=!
0;!
#720000
0!
0b
0c
#730000
1!
1b
1c
1]!
1a
1<!
1=
0d
1=!
#740000
0!
0b
0c
#750000
1!
1b
1c
1\!
0]!
0a
1`
0>!
0<!
1<
0=
0=!
1d
1>!
1?!
1=!
0?!
#760000
0!
0b
0c
#770000
1!
1b
1c
1]!
1a
1<!
1=
0d
0>!
0=!
1?!
#780000
0!
0b
0c
#790000
1!
1b
1c
1[!
0\!
0]!
0a
0`
1_
1@!
1>!
0<!
1;
0<
0=
0?!
1=!
1d
0@!
1A!
1?!
0=!
0A!
#800000
0!
0b
0c
#810000
1!
1b
1c
1]!
1a
1<!
1=
0d
1=!
#820000
0!
0b
0c
#830000
1!
1b
1c
1\!
0]!
0a
1`
0>!
0<!
1<
0=
0=!
1d
1@!
1>!
0?!
1=!
0@!
1A!
1?!
0A!
#840000
0!
0b
0c
#850000
1!
1b
1c
1]!
1a
1<!
1=
0d
0>!
0=!
1@!
0?!
1A!
#860000
0!
0b
0c
#870000
1!
1b
1c
1Z!
0[!
0\!
0]!
0a
0`
0_
1^
0e
0@!
1>!
0<!
1:
0;
0<
0=
0A!
1?!
1=!
1d
1e
1f
1A!
0?!
0=!
0f
1C!
1G
1>
0B!
#880000
0!
0b
0c
#890000
1!
1b
1c
1]!
1a
1.!
1<!
1=
0d
18!
1=!
1;!
0]!
0Z!
0^
0a
0.!
0<!
0=
0:
1d
0A!
08!
0=!
0;!
#900000
0!
0b
0c
#910000
1!
1b
1c
1]!
1a
1<!
1=
0d
1=!
#920000
0!
0b
0c
#930000
1!
1b
1c
1\!
0]!
0a
1`
0>!
0<!
1<
0=
0=!
1d
1>!
1?!
1=!
0?!
#940000
0!
0b
0c
#950000
1!
1b
1c
1]!
1a
1<!
1=
0d
0>!
0=!
1?!
#960000
0!
0b
0c
#970000
1!
1b
1c
1[!
0\!
0]!
0a
0`
1_
1@!
1>!
0<!
1;
0<
0=
0?!
1=!
1d
0@!
1A!
1?!
0=!
0A!
#980000
0!
0b
0c
#990000
1!
1b
1c
1]!
1a
1<!
1=
0d
1=!
