Andares_Elevador_S0/simulation/qsim/Andares_Elevador_S0.msim.vcd
$comment
	File created using the following command:
		vcd file Andares_Elevador_S0.msim.vcd -direction
$end
$date
	Mon Mar 27 21:45:39 2023
$end
$version
	ModelSim Version 10.5b
$end
$timescale
	1ps
$end

$scope module Andares_Elevador_S0_vlg_vec_tst $end
$var reg 1 ! B0 $end
$var reg 1 " B1 $end
$var reg 1 # B2 $end
$var reg 1 $ B3 $end
$var reg 1 % B4 $end
$var wire 1 & S0 $end

$scope module i1 $end
$var wire 1 ' gnd $end
$var wire 1 ( vcc $end
$var wire 1 ) unknown $end
$var tri1 1 * devclrn $end
$var tri1 1 + devpor $end
$var tri1 1 , devoe $end
$var wire 1 - S0~output_o $end
$var wire 1 . B0~input_o $end
$var wire 1 / B1~input_o $end
$var wire 1 0 B2~input_o $end
$var wire 1 1 B3~input_o $end
$var wire 1 2 B4~input_o $end
$var wire 1 3 inst11~0_combout $end
$var wire 1 4 inst11~1_combout $end
$upscope $end
$upscope $end
$enddefinitions $end
#0
$dumpvars
0!
0"
0#
0$
0%
0&
0'
1(
x)
1*
1+
1,
0-
0.
0/
00
01
02
03
04
$end
#10000
1!
1.
13
14
1-
1&
#20000
1"
0!
1/
0.
03
04
0-
0&
#30000
1!
1.
13
14
1-
1&
#40000
1#
0"
0!
10
0/
0.
03
#50000
1!
1.
13
#60000
1"
0!
1/
0.
03
04
0-
0&
#70000
1!
1.
13
14
1-
1&
#80000
1$
0#
0"
0!
11
00
0/
0.
03
04
0-
0&
#90000
1!
1.
#100000
1"
0!
1/
0.
#110000
1!
1.
#120000
1#
0"
0!
10
0/
0.
14
1-
1&
#130000
1!
1.
#140000
1"
0!
1/
0.
04
0-
0&
#150000
1!
1.
14
1-
1&
#160000
1%
0$
0#
0"
0!
12
01
00
0/
0.
13
04
0-
0&
14
1-
1&
#170000
1!
1.
03
04
0-
0&
#180000
1"
0!
1/
0.
13
14
1-
1&
#190000
1!
1.
03
04
0-
0&
#200000
1#
0"
0!
10
0/
0.
13
14
1-
1&
#210000
1!
1.
03
#220000
1"
0!
1/
0.
13
04
0-
0&
14
1-
1&
#230000
1!
1.
03
#240000
1$
0#
0"
0!
11
00
0/
0.
04
0-
0&
#250000
1!
1.
#260000
1"
0!
1/
0.
13
14
1-
1&
#270000
1!
1.
03
04
0-
0&
#280000
1#
0"
0!
10
0/
0.
14
1-
1&
#290000
1!
1.
#300000
1"
0!
1/
0.
13
04
0-
0&
14
1-
1&
#310000
1!
1.
03
#320000
0%
0$
0#
0"
0!
02
01
00
0/
0.
04
0-
0&
#330000
1!
1.
13
14
1-
1&
#340000
1"
0!
1/
0.
03
04
0-
0&
#350000
1!
1.
13
14
1-
1&
#360000
1#
0"
0!
10
0/
0.
03
#370000
1!
1.
13
#380000
1"
0!
1/
0.
03
04
0-
0&
#390000
1!
1.
13
14
1-
1&
#400000
1$
0#
0"
0!
11
00
0/
0.
03
04
0-
0&
#410000
1!
1.
#420000
1"
0!
1/
0.
#430000
1!
1.
#440000
1#
0"
0!
10
0/
0.
14
1-
1&
#450000
1!
1.
#460000
1"
0!
1/
0.
04
0-
0&
#470000
1!
1.
14
1-
1&
#480000
1%
0$
0#
0"
0!
12
01
00
0/
0.
13
04
0-
0&
14
1-
1&
#490000
1!
1.
03
04
0-
0&
#500000
1"
0!
1/
0.
13
14
1-
1&
#510000
1!
1.
03
04
0-
0&
#520000
1#
0"
0!
10
0/
0.
13
14
1-
1&
#530000
1!
1.
03
#540000
1"
0!
1/
0.
13
04
0-
0&
14
1-
1&
#550000
1!
1.
03
#560000
1$
0#
0"
0!
11
00
0/
0.
04
0-
0&
#570000
1!
1.
#580000
1"
0!
1/
0.
13
14
1-
1&
#590000
1!
1.
03
04
0-
0&
#600000
1#
0"
0!
10
0/
0.
14
1-
1&
#610000
1!
1.
#620000
1"
0!
1/
0.
13
04
0-
0&
14
1-
1&
#630000
1!
1.
03
#640000
0%
0$
0#
0"
0!
02
01
00
0/
0.
04
0-
0&
#650000
1!
1.
13
14
1-
1&
#660000
1"
0!
1/
0.
03
04
0-
0&
#670000
1!
1.
13
14
1-
1&
#680000
1#
0"
0!
10
0/
0.
03
#690000
1!
1.
13
#700000
1"
0!
1/
0.
03
04
0-
0&
#710000
1!
1.
13
14
1-
1&
#720000
1$
0#
0"
0!
11
00
0/
0.
03
04
0-
0&
#730000
1!
1.
#740000
1"
0!
1/
0.
#750000
1!
1.
#760000
1#
0"
0!
10
0/
0.
14
1-
1&
#770000
1!
1.
#780000
1"
0!
1/
0.
04
0-
0&
#790000
1!
1.
14
1-
1&
#800000
1%
0$
0#
0"
0!
12
01
00
0/
0.
13
04
0-
0&
14
1-
1&
#810000
1!
1.
03
04
0-
0&
#820000
1"
0!
1/
0.
13
14
1-
1&
#830000
1!
1.
03
04
0-
0&
#840000
1#
0"
0!
10
0/
0.
13
14
1-
1&
#850000
1!
1.
03
#860000
1"
0!
1/
0.
13
04
0-
0&
14
1-
1&
#870000
1!
1.
03
#880000
1$
0#
0"
0!
11
00
0/
0.
04
0-
0&
#890000
1!
1.
#900000
1"
0!
1/
0.
13
14
1-
1&
#910000
1!
1.
03
04
0-
0&
#920000
1#
0"
0!
10
0/
0.
14
1-
1&
#930000
1!
1.
#940000
1"
0!
1/
0.
13
04
0-
0&
14
1-
1&
#950000
1!
1.
03
#960000
0%
0$
0#
0"
0!
02
01
00
0/
0.
04
0-
0&
#970000
1!
1.
13
14
1-
1&
#980000
1"
0!
1/
0.
03
04
0-
0&
#990000
1!
1.
13
14
1-
1&
