Decodificador/simulation/qsim/Decodificador_Display.msim.vcd
$comment
	File created using the following command:
		vcd file Decodificador_Display.msim.vcd -direction
$end
$date
	Wed Nov 02 21:01:12 2022
$end
$version
	ModelSim Version 10.5b
$end
$timescale
	1ps
$end

$scope module Decodificador_Display_vlg_vec_tst $end
$var reg 8 ! B [7:0] $end
$var wire 1 " S [9] $end
$var wire 1 # S [8] $end
$var wire 1 $ S [7] $end
$var wire 1 % S [6] $end
$var wire 1 & S [5] $end
$var wire 1 ' S [4] $end
$var wire 1 ( S [3] $end
$var wire 1 ) S [2] $end
$var wire 1 * S [1] $end
$var wire 1 + S [0] $end

$scope module i1 $end
$var wire 1 , gnd $end
$var wire 1 - vcc $end
$var wire 1 . unknown $end
$var tri1 1 / devclrn $end
$var tri1 1 0 devpor $end
$var tri1 1 1 devoe $end
$var wire 1 2 S[9]~output_o $end
$var wire 1 3 S[8]~output_o $end
$var wire 1 4 S[7]~output_o $end
$var wire 1 5 S[6]~output_o $end
$var wire 1 6 S[5]~output_o $end
$var wire 1 7 S[4]~output_o $end
$var wire 1 8 S[3]~output_o $end
$var wire 1 9 S[2]~output_o $end
$var wire 1 : S[1]~output_o $end
$var wire 1 ; S[0]~output_o $end
$var wire 1 < B[4]~input_o $end
$var wire 1 = B[7]~input_o $end
$var wire 1 > B[3]~input_o $end
$var wire 1 ? B[5]~input_o $end
$var wire 1 @ inst16|82~3_combout $end
$var wire 1 A B[6]~input_o $end
$var wire 1 B inst16|82~9_combout $end
$var wire 1 C inst|48~combout $end
$var wire 1 D inst|41~0_combout $end
$var wire 1 E inst|41~1_combout $end
$var wire 1 F inst|41~2_combout $end
$var wire 1 G inst|43~1_combout $end
$var wire 1 H inst|43~0_combout $end
$var wire 1 I inst|43~2_combout $end
$var wire 1 J B[2]~input_o $end
$var wire 1 K inst|45~1_combout $end
$var wire 1 L inst|45~0_combout $end
$var wire 1 M inst|45~2_combout $end
$var wire 1 N inst11|82~0_combout $end
$var wire 1 O inst|82~0_combout $end
$var wire 1 P inst|81~1_combout $end
$var wire 1 Q inst|81~0_combout $end
$var wire 1 R inst|81~2_combout $end
$var wire 1 S inst16|81~0_combout $end
$var wire 1 T inst16|45~0_combout $end
$var wire 1 U inst16|43~0_combout $end
$var wire 1 V inst16|41~0_combout $end
$var wire 1 W inst11|81~0_combout $end
$var wire 1 X B[1]~input_o $end
$var wire 1 Y inst11|43~0_combout $end
$var wire 1 Z inst11|81~1_combout $end
$var wire 1 [ inst11|81~2_combout $end
$var wire 1 \ inst11|45~0_combout $end
$var wire 1 ] inst11|45~1_combout $end
$var wire 1 ^ inst11|45~2_combout $end
$var wire 1 _ inst11|43~1_combout $end
$var wire 1 ` inst11|43~2_combout $end
$var wire 1 a inst11|43~3_combout $end
$var wire 1 b inst11|41~0_combout $end
$var wire 1 c inst11|41~1_combout $end
$var wire 1 d B[0]~input_o $end
$upscope $end
$upscope $end
$enddefinitions $end
#0
$dumpvars
b0 !
0+
0*
0)
0(
0'
0&
0%
0$
0#
0"
0,
1-
x.
1/
10
11
02
03
04
05
06
07
08
09
0:
0;
0<
0=
0>
0?
0@
0A
0B
1C
1D
0E
0F
0G
0H
0I
0J
0K
0L
0M
0N
0O
0P
0Q
1R
1S
0T
0U
0V
0W
0X
0Y
1Z
0[
0\
0]
0^
0_
0`
0a
0b
0c
0d
$end
#5000
b1 !
1d
1;
1+
#10000
b11 !
b10 !
1X
0d
0;
1b
1`
1]
0Z
0+
1c
1:
1*
#15000
b11 !
1d
1;
1+
#20000
b111 !
b101 !
b100 !
0X
1J
0d
0;
0b
0`
0]
1Z
1Y
0+
1a
19
1]
0Z
1)
0c
0:
0*
#25000
b101 !
1d
1;
1+
#30000
b111 !
b110 !
1X
0d
0;
1b
1`
0]
1\
0+
1c
1:
1*
#35000
b111 !
1d
1;
1+
#40000
b1111 !
b1011 !
b1001 !
b1000 !
0X
0J
1>
0d
0;
0b
0`
1]
0\
0Y
1K
1H
1E
0D
1@
0+
0a
09
0]
1Z
1F
0)
0c
0:
1`
1_
0*
1^
18
1(
#45000
b1001 !
1d
1;
1+
#50000
b1011 !
b1010 !
1X
0d
0;
0`
0_
1]
0Z
0+
0^
1[
17
08
0(
1'
#55000
b1011 !
1d
1;
1+
#60000
b1111 !
b1101 !
b1100 !
0X
1J
0d
0;
1`
1_
0]
1Z
1Y
0+
1a
19
1]
0Z
1)
1c
0a
1^
0[
07
18
09
1:
1*
0)
1(
0'
0^
1[
17
08
0(
1'
#65000
b1101 !
1d
1;
1+
#70000
b1111 !
b1110 !
1X
0d
0;
0`
0_
0]
1\
0+
0c
1a
19
0:
0*
1)
#75000
b1111 !
1d
1;
1+
#80000
b11111 !
b10111 !
b10011 !
b10001 !
b10000 !
0X
0J
0>
1<
0d
0;
1`
1_
1]
0\
0Y
1G
0E
1D
0@
1Q
0+
0a
09
0]
1Z
1W
1I
0F
0)
1\
0`
0_
1c
1a
19
1:
1*
1)
#85000
b10001 !
1d
1;
1+
#90000
b10011 !
b10010 !
1X
0d
0;
1b
1`
1]
0Z
0+
0c
0a
1^
18
09
0:
0*
0)
1(
#95000
b10011 !
1d
1;
1+
#100000
b10111 !
b10101 !
b10100 !
0X
1J
0d
0;
0b
0`
0]
0\
1Z
0W
1N
0+
0^
0[
1V
16
07
08
0(
0'
1&
#105000
b10101 !
1d
1;
1+
#110000
b10111 !
b10110 !
1X
0d
0;
1b
1`
1]
0Z
0+
1c
1:
1*
#115000
b10111 !
1d
1;
1+
#120000
b11111 !
b11011 !
b11001 !
b11000 !
0X
0J
1>
0d
0;
0b
0`
0]
1\
1Z
1W
0N
1L
0K
0H
1E
0D
1@
0+
1F
1a
1[
0V
06
17
19
1b
1`
1_
1N
1)
1'
0&
0[
07
0'
0c
1V
16
0:
0*
1&
#125000
b11001 !
1d
1;
1+
#130000
b11011 !
b11010 !
1X
0d
0;
0b
0`
0_
1]
0Z
0+
1c
1:
1*
#135000
b11011 !
1d
1;
1+
#140000
b11111 !
b11101 !
b11100 !
0X
1J
0d
0;
1b
1`
1_
0]
0\
1Z
0W
0+
0a
09
0b
0)
1^
18
1(
0c
0:
0*
#145000
b11101 !
1d
1;
1+
#150000
b11111 !
b11110 !
1X
0d
0;
0`
0_
1]
0Z
0+
0^
1[
17
08
0(
1'
#155000
b11111 !
1d
1;
1+
#160000
b111111 !
b101111 !
b100111 !
b100011 !
b100001 !
b100000 !
0X
0J
0>
0<
1?
0d
0;
1`
1_
0]
1\
1Z
1W
0R
0L
0G
0E
0Q
0+
1a
19
1b
1M
0W
0I
0F
1R
1)
1c
0[
1U
15
07
1:
0_
0\
1*
0'
1%
1^
1[
0a
0U
05
09
17
18
1(
1'
0)
0%
0^
08
0(
#165000
b100001 !
1d
1;
1+
#170000
b100011 !
b100010 !
1X
0d
0;
0`
1_
1]
0Z
0+
0c
1a
19
0:
0*
1)
#175000
b100011 !
1d
1;
1+
#180000
b100111 !
b100101 !
b100100 !
0X
1J
0d
0;
1`
0_
0]
1Z
1Y
0+
0a
09
1]
0Z
0)
1c
1a
19
1:
1*
1)
#185000
b100101 !
1d
1;
1+
#190000
b100111 !
b100110 !
1X
0d
0;
0`
1_
0]
1\
0+
0c
0a
1^
18
09
0:
0*
0)
1(
#195000
b100111 !
1d
1;
1+
#200000
b101111 !
b101011 !
b101001 !
b101000 !
0X
0J
1>
0d
0;
1`
0_
1]
0\
0Y
0R
1K
1D
0+
1a
19
0]
1Z
0M
1)
1c
0a
0^
1U
15
08
09
1:
0b
0`
0N
1*
0)
0(
1%
0[
07
0'
0c
0V
06
0:
0*
0&
#205000
b101001 !
1d
1;
1+
#210000
b101011 !
b101010 !
1X
0d
0;
1b
1`
1]
0Z
0+
1c
1:
1*
#215000
b101011 !
1d
1;
1+
#220000
b101111 !
b101101 !
b101100 !
0X
1J
0d
0;
0b
0`
0]
1Z
1Y
0+
1a
19
1]
0Z
1)
0c
0:
0*
#225000
b101101 !
1d
1;
1+
#230000
b101111 !
b101110 !
1X
0d
0;
1b
1`
0]
1\
0+
1c
1:
1*
#235000
b101111 !
1d
1;
1+
#240000
b111111 !
b110111 !
b110011 !
b110001 !
b110000 !
0X
0J
0>
1<
0d
0;
0b
0`
1]
0\
0Y
1R
1H
1E
0D
1Q
0+
0a
09
0]
1Z
1F
0R
0)
0c
0U
05
0:
1`
1_
0*
0%
1^
1U
15
18
1(
1%
#245000
b110001 !
1d
1;
1+
#250000
b110011 !
b110010 !
1X
0d
0;
0`
0_
1]
0Z
0+
0^
1[
17
08
0(
1'
#255000
b110011 !
1d
1;
1+
#260000
b110111 !
b110101 !
b110100 !
0X
1J
0d
0;
1`
1_
0]
1Z
1Y
0+
1a
19
1]
0Z
1)
1c
0a
1^
0[
07
18
09
1:
1*
0)
1(
0'
0^
1[
17
08
0(
1'
#265000
b110101 !
1d
1;
1+
#270000
b110111 !
b110110 !
1X
0d
0;
0`
0_
0]
1\
0+
0c
1a
19
0:
0*
1)
#275000
b110111 !
1d
1;
1+
#280000
b111111 !
b111011 !
b111001 !
b111000 !
0X
0J
1>
0d
0;
1`
1_
1]
0\
0Y
1L
0K
1G
0E
1D
0+
0a
09
0]
1Z
1W
1I
0F
0)
1\
0`
0_
1c
1a
19
1:
1*
1)
#285000
b111001 !
1d
1;
1+
#290000
b111011 !
b111010 !
1X
0d
0;
1b
1`
1]
0Z
0+
0c
0a
1^
18
09
0:
0*
0)
1(
#295000
b111011 !
1d
1;
1+
#300000
b111111 !
b111101 !
b111100 !
0X
1J
0d
0;
0b
0`
0]
0\
1Z
0W
1N
0+
0^
0[
1V
16
07
08
0(
0'
1&
#305000
b111101 !
1d
1;
1+
#310000
b111111 !
b111110 !
1X
0d
0;
1b
1`
1]
0Z
0+
1c
1:
1*
#315000
b111111 !
1d
1;
1+
#320000
b1111111 !
b1011111 !
b1001111 !
b1000111 !
b1000011 !
b1000001 !
b1000000 !
0X
0J
0>
0<
0?
1A
0d
0;
0b
0`
0]
1\
1Z
1W
0N
1R
0H
1E
0D
0@
0Q
1P
0+
1F
0R
1a
1[
0V
0U
05
06
17
19
1b
1`
1_
1N
1)
1'
0&
0%
0[
1U
15
07
0'
1%
0c
1V
16
0:
0*
1&
#325000
b1000001 !
1d
1;
1+
#330000
b1000011 !
b1000010 !
1X
0d
0;
0b
0`
0_
1]
0Z
0+
1c
1:
1*
#335000
b1000011 !
1d
1;
1+
#340000
b1000111 !
b1000101 !
b1000100 !
0X
1J
0d
0;
1b
1`
1_
0]
0\
1Z
0W
0+
0a
09
0b
0)
1^
18
1(
0c
0:
0*
#345000
b1000101 !
1d
1;
1+
#350000
b1000111 !
b1000110 !
1X
0d
0;
0`
0_
1]
0Z
0+
0^
1[
17
08
0(
1'
#355000
b1000111 !
1d
1;
1+
#360000
b1001111 !
b1001011 !
b1001001 !
b1001000 !
0X
0J
1>
0d
0;
1`
1_
0]
1\
1Z
1W
1K
0G
0E
1@
0+
1a
19
1b
1M
0W
0I
0F
1)
1c
0[
07
1:
0_
0\
1*
0'
1^
1[
0a
09
17
18
1(
1'
0)
0^
08
0(
#365000
b1001001 !
1d
1;
1+
#370000
b1001011 !
b1001010 !
1X
0d
0;
0`
1_
1]
0Z
0+
0c
1a
19
0:
0*
1)
#375000
b1001011 !
1d
1;
1+
#380000
b1001111 !
b1001101 !
b1001100 !
0X
1J
0d
0;
1`
0_
0]
1Z
1Y
0+
0a
09
1]
0Z
0)
1c
1a
19
1:
1*
1)
#385000
b1001101 !
1d
1;
1+
#390000
b1001111 !
b1001110 !
1X
0d
0;
0`
1_
0]
1\
0+
0c
0a
1^
18
09
0:
0*
0)
1(
#395000
b1001111 !
1d
1;
1+
#400000
b1011111 !
b1010111 !
b1010011 !
b1010001 !
b1010000 !
0X
0J
0>
1<
0d
0;
1`
0_
1]
0\
0Y
0L
0K
1D
0@
0P
1O
0+
1a
19
0]
1Z
0M
1R
0S
1)
1c
0a
0^
0V
06
08
09
1:
13
0b
0`
0N
1#
1*
0)
0(
0&
0[
0U
05
07
1S
0'
0%
0c
1T
14
0:
03
0#
0*
1$
#405000
b1010001 !
1d
1;
1+
#410000
b1010011 !
b1010010 !
1X
0d
0;
1b
1`
1]
0Z
0+
1c
1:
1*
#415000
b1010011 !
1d
1;
1+
#420000
b1010111 !
b1010101 !
b1010100 !
0X
1J
0d
0;
0b
0`
0]
1Z
1Y
0+
1a
19
1]
0Z
1)
0c
0:
0*
#425000
b1010101 !
1d
1;
1+
#430000
b1010111 !
b1010110 !
1X
0d
0;
1b
1`
0]
1\
0+
1c
1:
1*
#435000
b1010111 !
1d
1;
1+
#440000
b1011111 !
b1011011 !
b1011001 !
b1011000 !
0X
0J
1>
0d
0;
0b
0`
1]
0\
0Y
1K
1H
1E
0D
1@
0+
0a
09
0]
1Z
1F
0)
0c
0:
1`
1_
0*
1^
18
1(
#445000
b1011001 !
1d
1;
1+
#450000
b1011011 !
b1011010 !
1X
0d
0;
0`
0_
1]
0Z
0+
0^
1[
17
08
0(
1'
#455000
b1011011 !
1d
1;
1+
#460000
b1011111 !
b1011101 !
b1011100 !
0X
1J
0d
0;
1`
1_
0]
1Z
1Y
0+
1a
19
1]
0Z
1)
1c
0a
1^
0[
07
18
09
1:
1*
0)
1(
0'
0^
1[
17
08
0(
1'
#465000
b1011101 !
1d
1;
1+
#470000
b1011111 !
b1011110 !
1X
0d
0;
0`
0_
0]
1\
0+
0c
1a
19
0:
0*
1)
#475000
b1011111 !
1d
1;
1+
#480000
b1111111 !
b1101111 !
b1100111 !
b1100011 !
b1100001 !
b1100000 !
0X
0J
0>
0<
1?
0d
0;
1`
1_
1]
0\
0Y
1L
0K
1G
0E
1D
1P
0+
0a
09
0]
1Z
1W
1I
0F
0)
1\
0`
0_
1c
1a
19
1:
1*
1)
#485000
b1100001 !
1d
1;
1+
#490000
b1100011 !
b1100010 !
1X
0d
0;
1b
1`
1]
0Z
0+
0c
0a
1^
18
09
0:
0*
0)
1(
#495000
b1100011 !
1d
1;
1+
#500000
b1100111 !
b1100101 !
b1100100 !
0X
1J
0d
0;
0b
0`
0]
0\
1Z
0W
1N
0+
0S
0^
0[
0T
04
07
08
13
1#
0(
0'
0$
#505000
b1100101 !
1d
1;
1+
#510000
b1100111 !
b1100110 !
1X
0d
0;
1b
1`
1]
0Z
0+
1c
1:
1*
#515000
b1100111 !
1d
1;
1+
#520000
b1101111 !
b1101011 !
b1101001 !
b1101000 !
0X
0J
1>
0d
0;
0b
0`
0]
1\
1Z
1W
0N
1K
0H
1E
0D
0+
1S
1F
1a
1[
1T
14
17
19
03
1b
1`
1_
1N
0#
1)
1'
1$
0[
07
0S
0'
0c
0T
04
0:
13
1#
0*
0$
#525000
b1101001 !
1d
1;
1+
#530000
b1101011 !
b1101010 !
1X
0d
0;
0b
0`
0_
1]
0Z
0+
1c
1:
1*
#535000
b1101011 !
1d
1;
1+
#540000
b1101111 !
b1101101 !
b1101100 !
0X
1J
0d
0;
1b
1`
1_
0]
0\
1Z
0W
0+
0a
09
0b
0)
1^
18
1(
0c
0:
0*
#545000
b1101101 !
1d
1;
1+
#550000
b1101111 !
b1101110 !
1X
0d
0;
0`
0_
1]
0Z
0+
0^
1[
17
08
0(
1'
#555000
b1101111 !
1d
1;
1+
#560000
b1111111 !
b1110111 !
b1110011 !
b1110001 !
b1110000 !
0X
0J
0>
1<
0d
0;
1`
1_
0]
1\
1Z
1W
0L
0K
0G
0E
0P
0+
1a
19
1b
1M
0W
0I
0F
1)
1c
0[
07
1:
0_
0\
1*
0'
1^
1[
0a
09
17
18
1(
1'
0)
0^
08
0(
#565000
b1110001 !
1d
1;
1+
#570000
b1110011 !
b1110010 !
1X
0d
0;
0`
1_
1]
0Z
0+
0c
1a
19
0:
0*
1)
#575000
b1110011 !
1d
1;
1+
#580000
b1110111 !
b1110101 !
b1110100 !
0X
1J
0d
0;
1`
0_
0]
1Z
1Y
0+
0a
09
1]
0Z
0)
1c
1a
19
1:
1*
1)
#585000
b1110101 !
1d
1;
1+
#590000
b1110111 !
b1110110 !
1X
0d
0;
0`
1_
0]
1\
0+
0c
0a
1^
18
09
0:
0*
0)
1(
#595000
b1110111 !
1d
1;
1+
#600000
b1111111 !
b1111011 !
b1111001 !
b1111000 !
0X
0J
1>
0d
0;
1`
0_
1]
0\
0Y
0R
1K
1D
0+
1a
19
0]
1Z
0M
1)
1c
0a
0^
1U
15
08
09
1:
0b
0`
0N
1*
0)
0(
1%
0[
07
0'
0c
1V
0U
05
16
0:
0*
1&
0%
#605000
b1111001 !
1d
1;
1+
#610000
b1111011 !
b1111010 !
1X
0d
0;
1b
1`
1]
0Z
0+
1c
1:
1*
#615000
b1111011 !
1d
1;
1+
#620000
b1111111 !
b1111101 !
b1111100 !
0X
1J
0d
0;
0b
0`
0]
1Z
1Y
0+
1a
19
1]
0Z
1)
0c
0:
0*
#625000
b1111101 !
1d
1;
1+
#630000
b1111111 !
b1111110 !
1X
0d
0;
1b
1`
0]
1\
0+
1c
1:
1*
#635000
b1111111 !
1d
1;
1+
#640000
b11111111 !
b10111111 !
b10011111 !
b10001111 !
b10000111 !
b10000011 !
b10000001 !
b10000000 !
0X
0J
0>
0<
0?
0A
1=
0d
0;
0b
0`
1]
0\
0Y
1R
0K
0@
1P
1F
0+
0a
09
0]
1Z
1S
0R
1`
1_
0)
0c
0V
1T
1[
17
14
06
0:
03
0S
0#
0*
0&
1$
1'
1^
0[
1V
0T
04
16
07
18
13
1#
1(
0'
1&
0$
#645000
b10000001 !
1d
1;
1+
#650000
b10000011 !
b10000010 !
1X
0d
0;
0`
0_
1]
0Z
0+
0^
1[
17
08
0(
1'
#655000
b10000011 !
1d
1;
1+
#660000
b10000111 !
b10000101 !
b10000100 !
0X
1J
0d
0;
1`
1_
0]
1Z
1Y
0+
1a
19
1]
0Z
1)
1c
0a
1^
0[
07
18
09
1:
1*
0)
1(
0'
0^
1[
17
08
0(
1'
#665000
b10000101 !
1d
1;
1+
#670000
b10000111 !
b10000110 !
1X
0d
0;
0`
0_
0]
1\
0+
0c
1a
19
0:
0*
1)
#675000
b10000111 !
1d
1;
1+
#680000
b10001111 !
b10001011 !
b10001001 !
b10001000 !
0X
0J
1>
0d
0;
1`
1_
1]
0\
0Y
1K
1H
1E
0D
1@
0+
0a
09
0]
1Z
1W
1I
0F
0)
1\
0`
0_
1c
1a
19
1:
1*
1)
#685000
b10001001 !
1d
1;
1+
#690000
b10001011 !
b10001010 !
1X
0d
0;
1b
1`
1]
0Z
0+
0c
0a
1^
18
09
0:
0*
0)
1(
#695000
b10001011 !
1d
1;
1+
#700000
b10001111 !
b10001101 !
b10001100 !
0X
1J
0d
0;
0b
0`
0]
0\
1Z
0W
1N
0+
0^
0[
0V
1U
15
06
07
08
0(
0'
0&
1%
#705000
b10001101 !
1d
1;
1+
#710000
b10001111 !
b10001110 !
1X
0d
0;
1b
1`
1]
0Z
0+
1c
1:
1*
#715000
b10001111 !
1d
1;
1+
#720000
b10011111 !
b10010111 !
b10010011 !
b10010001 !
b10010000 !
0X
0J
0>
1<
0d
0;
0b
0`
0]
1\
1Z
1W
0N
1G
0E
1D
0@
0+
1F
1a
1[
1V
0U
05
16
17
19
1b
1`
1_
1N
1)
1'
1&
0%
0[
07
0'
0c
0V
1U
15
06
0:
0*
0&
1%
#725000
b10010001 !
1d
1;
1+
#730000
b10010011 !
b10010010 !
1X
0d
0;
0b
0`
0_
1]
0Z
0+
1c
1:
1*
#735000
b10010011 !
1d
1;
1+
#740000
b10010111 !
b10010101 !
b10010100 !
0X
1J
0d
0;
1b
1`
1_
0]
0\
1Z
0W
0+
0a
09
0b
0)
1^
18
1(
0c
0:
0*
#745000
b10010101 !
1d
1;
1+
#750000
b10010111 !
b10010110 !
1X
0d
0;
0`
0_
1]
0Z
0+
0^
1[
17
08
0(
1'
#755000
b10010111 !
1d
1;
1+
#760000
b10011111 !
b10011011 !
b10011001 !
b10011000 !
0X
0J
1>
0d
0;
1`
1_
0]
1\
1Z
1W
1L
0K
0H
1E
0D
1@
0+
1a
19
1b
1M
0W
0I
0F
1)
1c
0[
07
1:
0_
0\
1*
0'
1^
1[
0a
09
17
18
1(
1'
0)
0^
08
0(
#765000
b10011001 !
1d
1;
1+
#770000
b10011011 !
b10011010 !
1X
0d
0;
0`
1_
1]
0Z
0+
0c
1a
19
0:
0*
1)
#775000
b10011011 !
1d
1;
1+
#780000
b10011111 !
b10011101 !
b10011100 !
0X
1J
0d
0;
1`
0_
0]
1Z
1Y
0+
0a
09
1]
0Z
0)
1c
1a
19
1:
1*
1)
#785000
b10011101 !
1d
1;
1+
#790000
b10011111 !
b10011110 !
1X
0d
0;
0`
1_
0]
1\
0+
0c
0a
1^
18
09
0:
0*
0)
1(
#795000
b10011111 !
1d
1;
1+
#800000
b10111111 !
b10101111 !
b10100111 !
b10100011 !
b10100001 !
b10100000 !
0X
0J
0>
0<
1?
0d
0;
1`
0_
1]
0\
0Y
1R
0L
0G
0E
0O
0M
0C
0+
1a
19
0]
1Z
0b
0`
0N
1)
1c
0a
0^
0U
1T
0[
07
14
05
08
09
1:
1*
0)
0(
0%
1$
0'
0c
1V
1U
0T
04
15
16
0:
0*
1&
1%
0$
#805000
b10100001 !
1d
1;
1+
#810000
b10100011 !
b10100010 !
1X
0d
0;
1b
1`
1]
0Z
0+
1c
1:
1*
#815000
b10100011 !
1d
1;
1+
#820000
b10100111 !
b10100101 !
b10100100 !
0X
1J
0d
0;
0b
0`
0]
1Z
1Y
0+
1a
19
1]
0Z
1)
0c
0:
0*
#825000
b10100101 !
1d
1;
1+
#830000
b10100111 !
b10100110 !
1X
0d
0;
1b
1`
0]
1\
0+
1c
1:
1*
#835000
b10100111 !
1d
1;
1+
#840000
b10101111 !
b10101011 !
b10101001 !
b10101000 !
0X
0J
1>
0d
0;
0b
0`
1]
0\
0Y
1K
1D
0+
0a
09
0]
1Z
1F
0)
0c
0:
1`
1_
0*
1^
18
1(
#845000
b10101001 !
1d
1;
1+
#850000
b10101011 !
b10101010 !
1X
0d
0;
0`
0_
1]
0Z
0+
0^
1[
17
08
0(
1'
#855000
b10101011 !
1d
1;
1+
#860000
b10101111 !
b10101101 !
b10101100 !
0X
1J
0d
0;
1`
1_
0]
1Z
1Y
0+
1a
19
1]
0Z
1)
1c
0a
1^
0[
07
18
09
1:
1*
0)
1(
0'
0^
1[
17
08
0(
1'
#865000
b10101101 !
1d
1;
1+
#870000
b10101111 !
b10101110 !
1X
0d
0;
0`
0_
0]
1\
0+
0c
1a
19
0:
0*
1)
#875000
b10101111 !
1d
1;
1+
#880000
b10111111 !
b10110111 !
b10110011 !
b10110001 !
b10110000 !
0X
0J
0>
1<
0d
0;
1`
1_
1]
0\
0Y
1H
1E
0D
0+
0a
09
0]
1Z
1W
1I
0F
0)
1\
0`
0_
1c
1a
19
1:
1*
1)
#885000
b10110001 !
1d
1;
1+
#890000
b10110011 !
b10110010 !
1X
0d
0;
1b
1`
1]
0Z
0+
0c
0a
1^
18
09
0:
0*
0)
1(
#895000
b10110011 !
1d
1;
1+
#900000
b10110111 !
b10110101 !
b10110100 !
0X
1J
0d
0;
0b
0`
0]
0\
1Z
0W
1N
0+
0^
0[
0V
0U
1T
14
05
06
07
08
0(
0'
0&
0%
1$
#905000
b10110101 !
1d
1;
1+
#910000
b10110111 !
b10110110 !
1X
0d
0;
1b
1`
1]
0Z
0+
1c
1:
1*
#915000
b10110111 !
1d
1;
1+
#920000
b10111111 !
b10111011 !
b10111001 !
b10111000 !
0X
0J
1>
0d
0;
0b
0`
0]
1\
1Z
1W
0N
1L
0K
1G
0E
1D
0+
1F
1a
1[
1V
1U
0T
04
15
16
17
19
1b
1`
1_
1N
1)
1'
1&
1%
0$
0[
07
0'
0c
0V
0U
1T
14
05
06
0:
0*
0&
0%
1$
#925000
b10111001 !
1d
1;
1+
#930000
b10111011 !
b10111010 !
1X
0d
0;
0b
0`
0_
1]
0Z
0+
1c
1:
1*
#935000
b10111011 !
1d
1;
1+
#940000
b10111111 !
b10111101 !
b10111100 !
0X
1J
0d
0;
1b
1`
1_
0]
0\
1Z
0W
0+
0a
09
0b
0)
1^
18
1(
0c
0:
0*
#945000
b10111101 !
1d
1;
1+
#950000
b10111111 !
b10111110 !
1X
0d
0;
0`
0_
1]
0Z
0+
0^
1[
17
08
0(
1'
#955000
b10111111 !
1d
1;
1+
#960000
b11111111 !
b11011111 !
b11001111 !
b11000111 !
b11000011 !
b11000001 !
b11000000 !
0X
0J
0>
0<
0?
1A
0d
0;
1`
1_
0]
1\
1Z
1W
0R
0H
1E
0D
0@
1Q
1M
0+
1a
1B
12
19
1S
0W
0I
0F
1R
0`
0_
0N
1)
1"
1c
1V
0T
0B
02
04
16
1:
03
1b
0\
1N
1`
0S
0#
1*
1&
0$
0"
0c
0a
1^
1U
15
18
09
0:
13
1#
0*
0)
1(
1%
1c
0^
0V
0U
1T
14
05
06
08
1:
1*
0(
0&
0%
1$
#965000
b11000001 !
1d
1;
1+
#970000
b11000011 !
b11000010 !
1X
0d
0;
0`
1_
1]
0Z
0+
0c
1a
19
0:
0*
1)
#975000
b11000011 !
1d
1;
1+
#980000
b11000111 !
b11000101 !
b11000100 !
0X
1J
0d
0;
1`
0_
0]
1Z
1Y
0+
0a
09
1]
0Z
0)
1c
1a
19
1:
1*
1)
#985000
b11000101 !
1d
1;
1+
#990000
b11000111 !
b11000110 !
1X
0d
0;
0`
1_
0]
1\
0+
0c
0a
1^
18
09
0:
0*
0)
1(
#995000
b11000111 !
1d
1;
1+
