Register_Paralelo_Paralelo/Register/simulation/qsim/Registrador.msim.vcd
$comment
	File created using the following command:
		vcd file Registrador.msim.vcd -direction
$end
$date
	Mon May 01 09:31:52 2023
$end
$version
	ModelSim Version 10.5b
$end
$timescale
	1ps
$end

$scope module Registrador_vlg_vec_tst $end
$var reg 1 ! CP $end
$var reg 1 " D0 $end
$var reg 1 # D1 $end
$var reg 1 $ D2 $end
$var reg 1 % MR $end
$var wire 1 & SP [2] $end
$var wire 1 ' SP [1] $end
$var wire 1 ( SP [0] $end
$var wire 1 ) SS [2] $end
$var wire 1 * SS [1] $end
$var wire 1 + SS [0] $end

$scope module i1 $end
$var wire 1 , gnd $end
$var wire 1 - vcc $end
$var wire 1 . unknown $end
$var tri1 1 / devclrn $end
$var tri1 1 0 devpor $end
$var tri1 1 1 devoe $end
$var wire 1 2 SP[2]~output_o $end
$var wire 1 3 SP[1]~output_o $end
$var wire 1 4 SP[0]~output_o $end
$var wire 1 5 SS[2]~output_o $end
$var wire 1 6 SS[1]~output_o $end
$var wire 1 7 SS[0]~output_o $end
$var wire 1 8 CP~input_o $end
$var wire 1 9 CP~inputclkctrl_outclk $end
$var wire 1 : D2~input_o $end
$var wire 1 ; inst8~feeder_combout $end
$var wire 1 < MR~input_o $end
$var wire 1 = MR~inputclkctrl_outclk $end
$var wire 1 > inst8~q $end
$var wire 1 ? D1~input_o $end
$var wire 1 @ inst13~feeder_combout $end
$var wire 1 A inst13~q $end
$var wire 1 B D0~input_o $end
$var wire 1 C inst14~feeder_combout $end
$var wire 1 D inst14~q $end
$upscope $end
$upscope $end
$enddefinitions $end
#0
$dumpvars
0!
0"
0#
1$
1%
0(
0'
0&
0+
0*
0)
0,
1-
x.
1/
10
11
02
03
04
05
06
07
08
09
1:
1;
1<
1=
0>
0?
0@
0A
0B
0C
0D
$end
#20000
1!
1"
18
1B
19
1C
1>
12
15
1)
1&
#40000
0!
0"
08
0B
09
0C
#60000
1!
18
19
#80000
0!
08
09
#100000
1!
18
19
#120000
0!
08
09
#140000
1!
18
19
#160000
0!
08
09
#180000
1!
18
19
#200000
0!
08
09
#220000
1!
18
19
#240000
0!
08
09
#260000
1!
18
19
#280000
0!
08
09
#300000
1!
18
19
#320000
0!
08
09
#340000
1!
18
19
#360000
0!
08
09
#380000
1!
18
19
#400000
0!
08
09
#420000
1!
18
19
#440000
0!
08
09
#460000
1!
18
19
#480000
0!
08
09
#500000
1!
18
19
#520000
0!
08
09
#540000
1!
18
19
#560000
0!
08
09
#580000
1!
18
19
#600000
0!
08
09
#620000
1!
18
19
#640000
0!
08
09
#660000
1!
18
19
#680000
0!
08
09
#700000
1!
18
19
#720000
0!
08
09
#740000
1!
18
19
#760000
0!
08
09
#780000
1!
18
19
#800000
0!
08
09
#820000
1!
18
19
#840000
0!
08
09
#860000
1!
18
19
#880000
0!
08
09
#900000
1!
18
19
#920000
0!
08
09
#940000
1!
18
19
#960000
0!
08
09
#980000
1!
18
19
