Registrador_Serial_Serial/simulation/qsim/Registrador_Serial_Serial.msim.vcd
$comment
	File created using the following command:
		vcd file Registrador_Serial_Serial.msim.vcd -direction
$end
$date
	Wed Apr 26 21:44:41 2023
$end
$version
	ModelSim Version 10.5b
$end
$timescale
	1ps
$end

$scope module Registrador_Serial_Serial_vlg_vec_tst $end
$var reg 1 ! CLK $end
$var reg 1 " IS $end
$var wire 1 # FF1 $end
$var wire 1 $ FF2 $end
$var wire 1 % SS [2] $end
$var wire 1 & SS [1] $end
$var wire 1 ' SS [0] $end

$scope module i1 $end
$var wire 1 ( gnd $end
$var wire 1 ) vcc $end
$var wire 1 * unknown $end
$var tri1 1 + devclrn $end
$var tri1 1 , devpor $end
$var tri1 1 - devoe $end
$var wire 1 . FF1~output_o $end
$var wire 1 / FF2~output_o $end
$var wire 1 0 SS[2]~output_o $end
$var wire 1 1 SS[1]~output_o $end
$var wire 1 2 SS[0]~output_o $end
$var wire 1 3 CLK~input_o $end
$var wire 1 4 CLK~inputclkctrl_outclk $end
$var wire 1 5 IS~input_o $end
$var wire 1 6 inst8~q $end
$var wire 1 7 inst3~feeder_combout $end
$var wire 1 8 inst3~q $end
$var wire 1 9 inst4[2]~feeder_combout $end
$var wire 1 : inst4[1]~feeder_combout $end
$var wire 1 ; inst4[0]~feeder_combout $end
$var wire 1 < inst4 [2] $end
$var wire 1 = inst4 [1] $end
$var wire 1 > inst4 [0] $end
$upscope $end
$upscope $end
$enddefinitions $end
#0
$dumpvars
0!
0"
0#
0$
0'
0&
0%
0(
1)
x*
1+
1,
1-
0.
0/
00
01
02
03
04
05
06
07
08
09
0:
0;
0>
0=
0<
$end
#10000
1!
1"
13
15
14
16
1.
1#
17
#20000
0!
0"
03
05
04
#30000
1!
13
14
18
06
0.
1/
1$
0#
1;
1:
19
07
#40000
0!
03
04
#50000
1!
13
14
1>
1=
1<
08
0/
10
11
12
1'
1&
1%
0$
0;
0:
09
#60000
0!
03
04
#70000
1!
13
14
0>
0=
0<
00
01
02
0'
0&
0%
#80000
0!
03
04
#90000
1!
13
14
#100000
0!
03
04
#110000
1!
13
14
#120000
0!
03
04
#130000
1!
13
14
#140000
0!
03
04
#150000
1!
13
14
#160000
0!
03
04
#170000
1!
13
14
#180000
0!
03
04
#190000
1!
13
14
#200000
0!
03
04
#210000
1!
13
14
#220000
0!
03
04
#230000
1!
13
14
#240000
0!
03
04
#250000
1!
13
14
#260000
0!
03
04
#270000
1!
13
14
#280000
0!
03
04
#290000
1!
13
14
#300000
0!
03
04
#310000
1!
13
14
#320000
0!
03
04
#330000
1!
13
14
#340000
0!
03
04
#350000
1!
13
14
#360000
0!
03
04
#370000
1!
13
14
#380000
0!
03
04
#390000
1!
13
14
#400000
0!
03
04
#410000
1!
13
14
#420000
0!
03
04
#430000
1!
13
14
#440000
0!
03
04
#450000
1!
13
14
#460000
0!
03
04
#470000
1!
13
14
#480000
0!
03
04
#490000
1!
13
14
#500000
0!
03
04
#510000
1!
13
14
#520000
0!
03
04
#530000
1!
13
14
#540000
0!
03
04
#550000
1!
13
14
#560000
0!
03
04
#570000
1!
13
14
#580000
0!
03
04
#590000
1!
13
14
#600000
0!
03
04
#610000
1!
13
14
#620000
0!
03
04
#630000
1!
13
14
#640000
0!
03
04
#650000
1!
13
14
#660000
0!
03
04
#670000
1!
13
14
#680000
0!
03
04
#690000
1!
13
14
#700000
0!
03
04
#710000
1!
13
14
#720000
0!
03
04
#730000
1!
13
14
#740000
0!
03
04
#750000
1!
13
14
#760000
0!
03
04
#770000
1!
13
14
#780000
0!
03
04
#790000
1!
13
14
#800000
0!
03
04
#810000
1!
13
14
#820000
0!
03
04
#830000
1!
13
14
#840000
0!
03
04
#850000
1!
13
14
#860000
0!
03
04
#870000
1!
13
14
#880000
0!
03
04
#890000
1!
13
14
#900000
0!
03
04
#910000
1!
13
14
#920000
0!
03
04
#930000
1!
13
14
#940000
0!
03
04
#950000
1!
13
14
#960000
0!
03
04
#970000
1!
13
14
#980000
0!
03
04
#990000
1!
13
14
