Display/simulation/qsim/Display.msim.vcd
$comment
	File created using the following command:
		vcd file Display.msim.vcd -direction
$end
$date
	Sat Apr 01 22:29:33 2023
$end
$version
	ModelSim Version 10.5b
$end
$timescale
	1ps
$end

$scope module Display_vlg_vec_tst $end
$var reg 8 ! DATA [7:0] $end
$var wire 1 " D0 [6] $end
$var wire 1 # D0 [5] $end
$var wire 1 $ D0 [4] $end
$var wire 1 % D0 [3] $end
$var wire 1 & D0 [2] $end
$var wire 1 ' D0 [1] $end
$var wire 1 ( D0 [0] $end
$var wire 1 ) D1 [6] $end
$var wire 1 * D1 [5] $end
$var wire 1 + D1 [4] $end
$var wire 1 , D1 [3] $end
$var wire 1 - D1 [2] $end
$var wire 1 . D1 [1] $end
$var wire 1 / D1 [0] $end
$var wire 1 0 D2 [6] $end
$var wire 1 1 D2 [5] $end
$var wire 1 2 D2 [4] $end
$var wire 1 3 D2 [3] $end
$var wire 1 4 D2 [2] $end
$var wire 1 5 D2 [1] $end
$var wire 1 6 D2 [0] $end
$var wire 1 7 LED $end

$scope module i1 $end
$var wire 1 8 gnd $end
$var wire 1 9 vcc $end
$var wire 1 : unknown $end
$var tri1 1 ; devclrn $end
$var tri1 1 < devpor $end
$var tri1 1 = devoe $end
$var wire 1 > LED~output_o $end
$var wire 1 ? D0[6]~output_o $end
$var wire 1 @ D0[5]~output_o $end
$var wire 1 A D0[4]~output_o $end
$var wire 1 B D0[3]~output_o $end
$var wire 1 C D0[2]~output_o $end
$var wire 1 D D0[1]~output_o $end
$var wire 1 E D0[0]~output_o $end
$var wire 1 F D1[6]~output_o $end
$var wire 1 G D1[5]~output_o $end
$var wire 1 H D1[4]~output_o $end
$var wire 1 I D1[3]~output_o $end
$var wire 1 J D1[2]~output_o $end
$var wire 1 K D1[1]~output_o $end
$var wire 1 L D1[0]~output_o $end
$var wire 1 M D2[6]~output_o $end
$var wire 1 N D2[5]~output_o $end
$var wire 1 O D2[4]~output_o $end
$var wire 1 P D2[3]~output_o $end
$var wire 1 Q D2[2]~output_o $end
$var wire 1 R D2[1]~output_o $end
$var wire 1 S D2[0]~output_o $end
$var wire 1 T DATA[3]~input_o $end
$var wire 1 U DATA[5]~input_o $end
$var wire 1 V DATA[4]~input_o $end
$var wire 1 W DATA[0]~input_o $end
$var wire 1 X inst1|LED~0_combout $end
$var wire 1 Y DATA[2]~input_o $end
$var wire 1 Z DATA[1]~input_o $end
$var wire 1 [ DATA[6]~input_o $end
$var wire 1 \ DATA[7]~input_o $end
$var wire 1 ] inst1|LED~1_combout $end
$var wire 1 ^ inst1|LED~combout $end
$var wire 1 _ inst2|b2v_inst|43~1_combout $end
$var wire 1 ` inst2|b2v_inst|43~0_combout $end
$var wire 1 a inst2|b2v_inst|43~2_combout $end
$var wire 1 b inst2|b2v_inst|41~1_combout $end
$var wire 1 c inst2|b2v_inst|41~0_combout $end
$var wire 1 d inst2|b2v_inst|41~2_combout $end
$var wire 1 e inst2|b2v_inst|45~1_combout $end
$var wire 1 f inst2|b2v_inst|45~0_combout $end
$var wire 1 g inst2|b2v_inst|45~2_combout $end
$var wire 1 h inst2|b2v_inst11|43~0_combout $end
$var wire 1 i inst2|b2v_inst11|43~1_combout $end
$var wire 1 j inst2|b2v_inst11|43~2_combout $end
$var wire 1 k inst2|b2v_inst11|41~0_combout $end
$var wire 1 l inst2|b2v_inst11|41~1_combout $end
$var wire 1 m inst2|b2v_inst11|41~2_combout $end
$var wire 1 n inst2|b2v_inst11|45~0_combout $end
$var wire 1 o inst4|87~combout $end
$var wire 1 p inst4|86~0_combout $end
$var wire 1 q inst4|85~combout $end
$var wire 1 r inst4|84~0_combout $end
$var wire 1 s inst4|4~0_combout $end
$var wire 1 t inst4|82~0_combout $end
$var wire 1 u inst4|81~combout $end
$var wire 1 v inst2|b2v_inst|81~0_combout $end
$var wire 1 w inst2|b2v_inst|81~1_combout $end
$var wire 1 x inst2|b2v_inst|81~2_combout $end
$var wire 1 y inst2|b2v_inst|48~combout $end
$var wire 1 z inst2|b2v_inst|82~0_combout $end
$var wire 1 { inst2|b2v_inst11|82~0_combout $end
$var wire 1 | inst2|b2v_inst16|43~0_combout $end
$var wire 1 } inst5|2~0_combout $end
$var wire 1 ~ inst2|b2v_inst11|81~1_combout $end
$var wire 1 !! inst2|b2v_inst11|81~0_combout $end
$var wire 1 "! inst2|b2v_inst11|81~2_combout $end
$var wire 1 #! inst2|b2v_inst16|41~0_combout $end
$var wire 1 $! inst5|87~combout $end
$var wire 1 %! inst5|86~0_combout $end
$var wire 1 &! inst5|85~combout $end
$var wire 1 '! inst5|84~0_combout $end
$var wire 1 (! inst5|6~combout $end
$var wire 1 )! inst5|82~0_combout $end
$var wire 1 *! inst5|81~combout $end
$var wire 1 +! inst6|6~3_combout $end
$var wire 1 ,! inst6|6~combout $end
$var wire 1 -! inst6|86~3_combout $end
$var wire 1 .! inst6|86~12_combout $end
$var wire 1 /! inst2|b2v_inst16|81~0_combout $end
$var wire 1 0! inst6|5~combout $end
$upscope $end
$upscope $end
$enddefinitions $end
#0
$dumpvars
b0 !
0(
0'
0&
0%
0$
0#
1"
0/
0.
0-
0,
0+
0*
1)
06
05
04
03
02
01
10
07
08
19
x:
1;
1<
1=
0>
1?
0@
0A
0B
0C
0D
0E
1F
0G
0H
0I
0J
0K
0L
1M
0N
0O
0P
0Q
0R
0S
0T
0U
0V
0W
0X
0Y
0Z
0[
0\
0]
0^
0_
0`
0a
0b
1c
0d
0e
0f
1g
0h
1i
0j
0k
0l
0m
0n
1o
0p
0q
0r
0s
0t
0u
0v
0w
1x
1y
0z
0{
0|
1}
0~
1!!
1"!
0#!
1$!
0%!
0&!
0'!
0(!
0)!
0*!
0+!
0,!
0-!
0.!
1/!
10!
$end
#5000
b1 !
1W
1u
1r
1q
1p
1@
1A
1B
1E
1(
1%
1$
1#
#10000
b11 !
b10 !
0W
1Z
1l
0i
0u
0r
0q
0p
0@
0A
0B
0E
1m
0(
0%
0$
0#
1s
1p
0o
0?
1@
1C
1&
1#
0"
#15000
b11 !
1W
0s
1q
1A
0C
0&
1$
#20000
b111 !
b101 !
b100 !
0W
0Z
1Y
0m
1i
1-!
1j
1s
0q
0A
1C
1&
0$
1u
0s
1r
1q
0p
0@
1A
1B
0C
1E
1(
0&
1%
1$
0#
#25000
b101 !
1W
0u
1t
0r
0B
1D
0E
0(
1'
0%
#30000
b111 !
b110 !
0W
1Z
1m
0i
1]
1u
0t
1r
1B
0D
1E
1(
0'
1%
1t
0r
0q
0A
0B
1D
1'
0%
0$
#35000
b111 !
1W
0u
0t
1r
1q
1p
1o
1?
1@
1A
1B
0D
0E
0(
0'
1%
1$
1#
1"
#40000
b1111 !
b1011 !
b1001 !
b1000 !
0W
0Z
0Y
1T
0m
0l
1i
0]
0j
1+!
0c
1b
1`
1u
1t
0r
0q
0p
0o
0?
0@
0A
0B
1D
1E
1d
1(
1'
0%
0$
0#
0"
0u
0t
1o
1?
0D
0E
0!!
1~
1h
0(
0'
1"
1n
0o
0?
0"
#45000
b1001 !
1W
1r
1q
1A
1B
1%
1$
#50000
b1011 !
b1010 !
0W
1Z
0~
1l
0h
0r
0q
0A
0B
0"!
0n
0%
0$
1*!
1'!
1&!
1%!
1o
1?
1G
1H
1I
1L
1/
1,
1+
1*
1"
#55000
b1011 !
1W
1u
1r
1q
1p
1@
1A
1B
1E
1(
1%
1$
1#
#60000
b1111 !
b1101 !
b1100 !
0W
0Z
1Y
1~
1m
1h
1j
0u
0r
0q
0p
0@
0A
0B
0E
0j
0(
0%
0$
0#
1u
1t
0o
0?
1D
1E
1(
1'
0"
0u
0t
1s
1p
1@
1C
0D
0E
0(
0'
1&
1#
#65000
b1101 !
1W
0s
1q
1A
0C
0&
1$
#70000
b1111 !
b1110 !
0W
1Z
0~
0m
0h
1]
1s
0q
0A
1C
1j
1&
0$
0s
0p
1o
1?
0@
0C
0&
0#
1"
1u
1r
1q
0o
0?
1A
1B
1E
1(
1%
1$
0"
#75000
b1111 !
1W
0u
1t
0r
0B
1D
0E
0(
1'
0%
#80000
b11111 !
b10111 !
b10011 !
b10001 !
b10000 !
0W
0Z
0Y
0T
1V
1~
1m
0l
1h
0]
0j
0+!
1c
0b
1_
1v
1f
1u
0t
1r
1B
0D
1E
1"!
0m
1n
0d
1a
1(
0'
1%
0u
1s
0r
0q
1p
1@
0A
0B
1C
0E
1!!
0~
0h
0n
1k
1j
0(
1&
0%
0$
1#
0*!
0'!
0&!
0%!
0s
0p
0@
0C
0G
0H
0I
0L
0"!
1m
0/
0,
0+
0*
0&
0#
1u
1r
1q
1A
1B
1E
1(
1%
1$
1*!
1'!
1&!
1%!
1t
0r
0q
0A
0B
1D
1G
1H
1I
1L
1/
1,
1+
1*
1'
0%
0$
#85000
b10001 !
1W
0u
0t
1r
1q
1p
1o
1?
1@
1A
1B
0D
0E
0(
0'
1%
1$
1#
1"
#90000
b10011 !
b10010 !
0W
1Z
0m
0i
1u
1t
0r
0q
0p
0o
0?
0@
0A
0B
1D
1E
1n
0j
1(
1'
0%
0$
0#
0"
0t
1r
1q
1A
1B
0D
0'
1%
1$
0u
0r
0q
0A
0B
0E
0(
0%
0$
#95000
b10011 !
1W
1r
1q
1A
1B
1%
1$
#100000
b10111 !
b10101 !
b10100 !
0W
0Z
1Y
1m
1i
1"!
1{
0n
0k
0r
0q
0A
0B
1#!
0m
0%
0$
1s
1p
0*!
0'!
0&!
0%!
0G
0H
0I
0L
1@
1C
1&
1#
0/
0,
0+
0*
1(!
1%!
0$!
0s
0p
1o
1?
0@
0C
0F
1G
1J
1-
1*
0)
0&
0#
1"
#105000
b10101 !
1W
1u
1r
1q
1p
1@
1A
1B
1E
1(
1%
1$
1#
#110000
b10111 !
b10110 !
0W
1Z
1l
0i
1]
0u
0r
0q
0p
0@
0A
0B
0E
1m
0(
0%
0$
0#
1s
1p
0o
0?
1@
1C
1&
1#
0"
#115000
b10111 !
1W
0s
1q
1A
0C
0&
1$
#120000
b11111 !
b11011 !
b11001 !
b11000 !
0W
0Z
0Y
1T
0m
0l
1i
0]
0"!
0{
1n
1k
1+!
0c
1b
0`
1s
0q
0A
1C
1m
0n
1j
0#!
1d
1&
0$
0s
0p
0(!
1&!
1H
0J
0@
0C
0!!
1~
1{
0m
1h
0&
0#
0-
1+
1u
1t
1*!
1'!
1$!
1F
1I
1L
1D
1E
1"!
1#!
1(
1'
1/
1,
1)
0t
1r
1q
1A
1B
0D
0'
1%
1$
0*!
1(!
0'!
0&!
0$!
0F
0H
0I
1J
0L
0/
1-
0,
0+
0)
#125000
b11001 !
1W
0u
1t
0r
0B
1D
0E
0(
1'
0%
#130000
b11011 !
b11010 !
0W
1Z
0~
1m
0h
1u
0t
1r
1B
0D
1E
1(
0'
1%
1t
0r
0q
0A
0B
1D
1'
0%
0$
#135000
b11011 !
1W
0u
0t
1r
1q
1p
1o
1?
1@
1A
1B
0D
0E
0(
0'
1%
1$
1#
1"
#140000
b11111 !
b11101 !
b11100 !
0W
0Z
1Y
1~
0m
1h
0"!
0k
0j
1u
1t
0r
0q
0p
0o
0?
0@
0A
0B
1D
1E
1"!
1n
1(
1'
0%
0$
0#
0"
0u
0t
1o
0(!
1&!
1H
0J
1?
0D
0E
0(
0'
1"
0-
1+
1(!
0&!
0o
0?
0H
1J
1-
0+
0"
#145000
b11101 !
1W
1r
1q
1A
1B
1%
1$
#150000
b11111 !
b11110 !
0W
1Z
0~
1l
0h
1]
0r
0q
0A
0B
0"!
0n
0%
0$
0(!
1&!
1o
1?
1H
0J
0-
1+
1"
#155000
b11111 !
1W
1u
1r
1q
1p
1@
1A
1B
1E
1(
1%
1$
1#
#160000
b111111 !
b101111 !
b100111 !
b100011 !
b100001 !
b100000 !
0W
0Z
0Y
0T
0V
1U
1X
1~
1m
0l
1h
0]
0-!
1"!
1k
1j
0x
0b
0_
0v
0f
1e
0u
0r
0q
0p
0@
0A
0B
0E
0m
0}
1|
0d
0a
1x
0g
0(
0%
0$
0#
1u
1t
0o
1(!
0&!
0H
1J
0?
1D
1E
0~
1m
0i
0h
1n
0j
1}
0|
1(
1'
0"
1-
0+
0t
1r
1q
1*!
0%!
1)!
0(!
0J
1K
0G
1L
1A
1B
0D
0"!
0n
0'
1%
1$
1/
0*
1.
0-
0u
1s
0r
0q
1p
0*!
1%!
0)!
1(!
1J
0K
1G
0L
1@
0A
0B
1C
0E
0(
1&
0%
0$
1#
0/
1*
0.
1-
0(!
1&!
1H
0J
0-
1+
#165000
b100001 !
1W
0X
0s
1q
1A
0C
0&
1$
#170000
b100011 !
b100010 !
0W
1Z
1X
1!!
1~
0m
1h
1s
0q
0A
1C
1j
1&
0$
0s
0p
1o
1?
0@
0C
0&
0#
1"
1u
1r
1q
0o
0?
1A
1B
1E
1(
1%
1$
0"
#175000
b100011 !
1W
0X
0u
1t
0r
0B
1D
0E
0(
1'
0%
#180000
b100111 !
b100101 !
b100100 !
0W
0Z
1Y
1X
0!!
0~
1m
0h
1-!
1n
0j
1u
0t
1r
1B
0D
1E
0n
1j
1(
0'
1%
0u
1s
0r
0q
1p
1@
0A
0B
1C
0E
0(
1&
0%
0$
1#
1u
0p
1t
0s
0C
1D
0@
1E
1(
0#
1'
0&
#185000
b100101 !
1W
0X
0u
0t
1r
1q
1p
1o
1?
1@
1A
1B
0D
0E
0(
0'
1%
1$
1#
1"
#190000
b100111 !
b100110 !
0W
1Z
1X
1!!
1~
0m
1h
1]
1u
1t
0r
0q
0p
0o
0?
0@
0A
0B
1D
1E
1n
0j
1(
1'
0%
0$
0#
0"
1^
0t
1r
1q
1A
1B
0D
1>
17
0'
1%
1$
0u
0r
0q
0A
0B
0E
0(
0%
0$
#195000
b100111 !
1W
0X
1r
1q
1A
1B
1%
1$
0^
0>
07
#200000
b101111 !
b101011 !
b101001 !
b101000 !
0W
0Z
0Y
1T
0!!
0~
1m
0h
0]
0n
1j
0x
1g
1c
0r
0q
0A
0B
0j
0}
1|
1!!
0{
0k
1i
0%
0$
1u
1t
1D
1E
1"!
0#!
0m
1(
1'
0u
0t
1s
1p
1$!
1'!
1I
1F
1@
1C
0D
0E
0(
0'
1&
1#
1)
1,
1*!
0%!
0$!
0s
0p
1o
1?
0@
0C
0F
0G
1L
1/
0*
0)
0&
0#
1"
#205000
b101001 !
1W
1u
1r
1q
1p
1@
1A
1B
1E
1(
1%
1$
1#
#210000
b101011 !
b101010 !
0W
1Z
1l
0i
0u
0r
0q
0p
0@
0A
0B
0E
1m
0(
0%
0$
0#
1s
1p
0o
0?
1@
1C
1&
1#
0"
#215000
b101011 !
1W
0s
1q
1A
0C
0&
1$
#220000
b101111 !
b101101 !
b101100 !
0W
0Z
1Y
0m
1i
1j
1s
0q
0A
1C
1&
0$
1u
0s
1r
1q
0p
0@
1A
1B
0C
1E
1(
0&
1%
1$
0#
#225000
b101101 !
1W
0u
1t
0r
0B
1D
0E
0(
1'
0%
#230000
b101111 !
b101110 !
0W
1Z
1m
0i
1]
1u
0t
1r
1B
0D
1E
1(
0'
1%
1t
0r
0q
0A
0B
1D
1'
0%
0$
#235000
b101111 !
1W
0u
0t
1r
1q
1p
1o
1?
1@
1A
1B
0D
0E
0(
0'
1%
1$
1#
1"
#240000
b111111 !
b110111 !
b110011 !
b110001 !
b110000 !
0W
0Z
0Y
0T
1V
0m
0l
1i
0]
0j
1x
0g
0c
1b
1`
1v
0e
1u
1t
0r
0q
0p
0o
0?
0@
0A
0B
1D
1E
1}
0|
0!!
1{
1k
0i
1d
0x
1g
1(
1'
0%
0$
0#
0"
0u
0t
1o
1?
0D
0E
0"!
1#!
0}
1|
1~
0{
1i
1h
0k
0(
0'
1"
0*!
1$!
0'!
0&!
0H
0I
1F
0L
1"!
0#!
1n
0/
1)
0,
0+
1'!
1&!
1%!
1G
1H
1I
1,
1+
1*
1*!
0%!
0$!
0o
0?
0F
0G
1L
1/
0*
0)
0"
#245000
b110001 !
1W
1r
1q
1A
1B
1%
1$
#250000
b110011 !
b110010 !
0W
1Z
0~
1l
0h
0r
0q
0A
0B
0"!
0n
0%
0$
0*!
1)!
0'!
1o
1?
0I
1K
0L
0/
1.
0,
1"
#255000
b110011 !
1W
1u
1r
1q
1p
1@
1A
1B
1E
1(
1%
1$
1#
#260000
b110111 !
b110101 !
b110100 !
0W
0Z
1Y
1~
1m
1h
1j
0u
0r
0q
0p
0@
0A
0B
0E
0j
0(
0%
0$
0#
1u
1t
0o
0?
1D
1E
1(
1'
0"
0u
0t
1s
1p
1@
1C
0D
0E
0(
0'
1&
1#
#265000
b110101 !
1W
0s
1q
1A
0C
0&
1$
#270000
b110111 !
b110110 !
0W
1Z
0~
0m
0h
1]
1s
0q
0A
1C
1j
1&
0$
0s
0p
1o
1?
0@
0C
0&
0#
1"
1u
1r
1q
0o
0?
1A
1B
1E
1(
1%
1$
0"
#275000
b110111 !
1W
0u
1t
0r
0B
1D
0E
0(
1'
0%
#280000
b111111 !
b111011 !
b111001 !
b111000 !
0W
0Z
0Y
1T
1~
1m
0l
1h
0]
0j
1c
0b
1_
1u
0t
1r
1B
0D
1E
1"!
0m
1n
0d
1a
1(
0'
1%
0u
1s
0r
0q
1p
1@
0A
0B
1C
0E
1!!
0~
0h
0n
1k
1j
0(
1&
0%
0$
1#
1*!
0)!
1'!
0s
0p
0@
0C
1I
0K
1L
0"!
1m
1/
0.
1,
0&
0#
1u
1r
1q
1A
1B
1E
1(
1%
1$
0*!
1)!
0'!
1t
0r
0q
0A
0B
1D
0I
1K
0L
0/
1.
0,
1'
0%
0$
#285000
b111001 !
1W
0u
0t
1r
1q
1p
1o
1?
1@
1A
1B
0D
0E
0(
0'
1%
1$
1#
1"
#290000
b111011 !
b111010 !
0W
1Z
0m
0i
1u
1t
0r
0q
0p
0o
0?
0@
0A
0B
1D
1E
1n
0j
1(
1'
0%
0$
0#
0"
0t
1r
1q
1A
1B
0D
0'
1%
1$
0u
0r
0q
0A
0B
0E
0(
0%
0$
#295000
b111011 !
1W
1r
1q
1A
1B
1%
1$
#300000
b111111 !
b111101 !
b111100 !
0W
0Z
1Y
1m
1i
1"!
1{
0n
0k
0r
0q
0A
0B
1#!
0m
0%
0$
1s
1p
1*!
0)!
1'!
1I
0K
1L
1@
1C
1&
1#
1/
0.
1,
1)!
0'!
0&!
0s
0p
1o
1?
0@
0C
0H
0I
1K
1.
0,
0+
0&
0#
1"
#305000
b111101 !
1W
1u
1r
1q
1p
1@
1A
1B
1E
1(
1%
1$
1#
#310000
b111111 !
b111110 !
0W
1Z
1l
0i
1]
0u
0r
0q
0p
0@
0A
0B
0E
1m
0(
0%
0$
0#
1s
1p
0o
0?
1@
1C
1&
1#
0"
#315000
b111111 !
1W
0s
1q
1A
0C
0&
1$
#320000
b1111111 !
b1011111 !
b1001111 !
b1000111 !
b1000011 !
b1000001 !
b1000000 !
0W
0Z
0Y
0T
0V
0U
1[
0m
0l
1i
0]
0-!
0"!
0{
1n
1k
0+!
1x
0c
1b
0`
1w
0v
1f
1e
1s
0q
0A
1C
1m
0n
1j
0#!
1}
0|
1d
0x
1&
0$
0s
0p
0*!
0)!
1'!
1&!
1%!
1$!
1F
1G
1H
1I
0K
0L
0@
0C
0!!
1~
1{
0m
1h
0}
1|
0&
0#
0/
0.
1,
1+
1*
1)
1u
1t
1*!
1L
1D
1E
1"!
1#!
1(
1'
1/
0t
1r
1q
0*!
0%!
0$!
1)!
0'!
0I
1K
0F
0G
0L
1A
1B
0D
0'
1%
1$
0/
0*
0)
1.
0,
1*!
0&!
0H
1L
1/
0+
#325000
b1000001 !
1W
0u
1t
0r
0B
1D
0E
0(
1'
0%
#330000
b1000011 !
b1000010 !
0W
1Z
0~
1m
0h
1u
0t
1r
1B
0D
1E
1(
0'
1%
1t
0r
0q
0A
0B
1D
1'
0%
0$
#335000
b1000011 !
1W
0u
0t
1r
1q
1p
1o
1?
1@
1A
1B
0D
0E
0(
0'
1%
1$
1#
1"
#340000
b1000111 !
b1000101 !
b1000100 !
0W
0Z
1Y
1~
0m
1h
1-!
0"!
0k
0j
1u
1t
0r
0q
0p
0o
0?
0@
0A
0B
1D
1E
1"!
1n
1(
1'
0%
0$
0#
0"
0u
0t
1o
0*!
0)!
1'!
1&!
1%!
1$!
1F
1G
1H
1I
0K
0L
1?
0D
0E
0(
0'
1"
0/
0.
1,
1+
1*
1)
1*!
1)!
0'!
0&!
0%!
0$!
0o
0?
0F
0G
0H
0I
1K
1L
1/
1.
0,
0+
0*
0)
0"
#345000
b1000101 !
1W
1r
1q
1A
1B
1%
1$
#350000
b1000111 !
b1000110 !
0W
1Z
0~
1l
0h
0r
0q
0A
0B
0"!
0n
0%
0$
0*!
0)!
1'!
1&!
1%!
1$!
1o
1?
1F
1G
1H
1I
0K
0L
0/
0.
1,
1+
1*
1)
1"
#355000
b1000111 !
1W
1u
1r
1q
1p
1@
1A
1B
1E
1(
1%
1$
1#
#360000
b1001111 !
b1001011 !
b1001001 !
b1001000 !
0W
0Z
0Y
1T
1~
1m
0l
1h
1"!
1k
1j
1+!
0g
0b
0_
0u
0r
0q
0p
0@
0A
0B
0E
0m
1!!
0~
0{
1l
0k
0h
0d
0a
0(
0%
0$
0#
1u
1t
0o
1*!
1)!
0'!
0&!
0%!
0$!
0F
0G
0H
0I
1K
1L
0?
1D
1E
0#!
0j
0!!
1{
0i
0l
1k
1(
1'
0"
1/
1.
0,
0+
0*
0)
0t
1r
1q
1A
1B
0D
0"!
1#!
1m
0'
1%
1$
0)!
1'!
1&!
0u
0r
0q
1o
1?
0A
0B
0E
1H
1I
0K
0.
1,
1+
0(
0%
0$
1"
0*!
1%!
1$!
1s
1p
0o
0?
1@
1C
1F
1G
0L
0/
1*
1)
1&
1#
0"
#365000
b1001001 !
1W
0s
1q
1A
0C
0&
1$
#370000
b1001011 !
b1001010 !
0W
1Z
1!!
1~
0m
1h
1s
0q
0A
1C
1j
1&
0$
0s
0p
1o
1?
0@
0C
0&
0#
1"
1u
1r
1q
0o
0?
1A
1B
1E
1(
1%
1$
0"
#375000
b1001011 !
1W
0u
1t
0r
0B
1D
0E
0(
1'
0%
#380000
b1001111 !
b1001101 !
b1001100 !
0W
0Z
1Y
0!!
0~
1m
0h
1n
0j
1u
0t
1r
1B
0D
1E
0n
1j
1(
0'
1%
0u
1s
0r
0q
1p
1@
0A
0B
1C
0E
0(
1&
0%
0$
1#
1u
0p
1t
0s
0C
1D
0@
1E
1(
0#
1'
0&
#385000
b1001101 !
1W
0u
0t
1r
1q
1p
1o
1?
1@
1A
1B
0D
0E
0(
0'
1%
1$
1#
1"
#390000
b1001111 !
b1001110 !
0W
1Z
1!!
1~
0m
1h
1u
1t
0r
0q
0p
0o
0?
0@
0A
0B
1D
1E
1n
0j
1(
1'
0%
0$
0#
0"
0t
1r
1q
1A
1B
0D
0'
1%
1$
0u
0r
0q
0A
0B
0E
0(
0%
0$
#395000
b1001111 !
1W
1r
1q
1A
1B
1%
1$
#400000
b1011111 !
b1010111 !
b1010011 !
b1010001 !
b1010000 !
0W
0Z
0Y
0T
1V
0!!
0~
1m
0h
0n
1j
0+!
1g
1c
1z
0w
0f
0e
0r
0q
0A
0B
0j
1!!
0{
0k
1i
00!
0/!
0#!
1x
0%
0$
1u
1t
1D
1E
1O
1S
1P
1"!
10!
1/!
0|
0m
13
16
12
1(
1'
0u
0t
1s
1p
1)!
0'!
0%!
0$!
0F
0G
0I
1K
1@
1C
0D
0E
0O
0S
0P
03
06
02
0(
0'
1&
1#
1.
0,
0*
0)
0)!
0&!
0s
0p
1o
1?
0@
0C
0H
0K
0.
0+
0&
0#
1"
#405000
b1010001 !
1W
1u
1r
1q
1p
1@
1A
1B
1E
1(
1%
1$
1#
#410000
b1010011 !
b1010010 !
0W
1Z
1l
0i
0u
0r
0q
0p
0@
0A
0B
0E
1m
0(
0%
0$
0#
1s
1p
0o
0?
1@
1C
1&
1#
0"
#415000
b1010011 !
1W
0s
1q
1A
0C
0&
1$
#420000
b1010111 !
b1010101 !
b1010100 !
0W
0Z
1Y
0m
1i
1j
1s
0q
0A
1C
1&
0$
1u
0s
1r
1q
0p
0@
1A
1B
0C
1E
1(
0&
1%
1$
0#
#425000
b1010101 !
1W
0u
1t
0r
0B
1D
0E
0(
1'
0%
#430000
b1010111 !
b1010110 !
0W
1Z
1m
0i
1u
0t
1r
1B
0D
1E
1(
0'
1%
1t
0r
0q
0A
0B
1D
1'
0%
0$
#435000
b1010111 !
1W
0u
0t
1r
1q
1p
1o
1?
1@
1A
1B
0D
0E
0(
0'
1%
1$
1#
1"
#440000
b1011111 !
b1011011 !
b1011001 !
b1011000 !
0W
0Z
0Y
1T
0m
0l
1i
0j
1+!
0c
1b
1`
1u
1t
0r
0q
0p
0o
0?
0@
0A
0B
1D
1E
1d
1(
1'
0%
0$
0#
0"
0u
0t
1o
1?
0D
0E
0!!
1~
1h
0(
0'
1"
1n
0o
0?
0"
#445000
b1011001 !
1W
1r
1q
1A
1B
1%
1$
#450000
b1011011 !
b1011010 !
0W
1Z
0~
1l
0h
0r
0q
0A
0B
0"!
0n
0%
0$
1'!
1&!
1o
1?
1H
1I
1,
1+
1"
#455000
b1011011 !
1W
1u
1r
1q
1p
1@
1A
1B
1E
1(
1%
1$
1#
#460000
b1011111 !
b1011101 !
b1011100 !
0W
0Z
1Y
1~
1m
1h
1j
0u
0r
0q
0p
0@
0A
0B
0E
0j
0(
0%
0$
0#
1u
1t
0o
0?
1D
1E
1(
1'
0"
0u
0t
1s
1p
1@
1C
0D
0E
0(
0'
1&
1#
#465000
b1011101 !
1W
0s
1q
1A
0C
0&
1$
#470000
b1011111 !
b1011110 !
0W
1Z
0~
0m
0h
1s
0q
0A
1C
1j
1&
0$
0s
0p
1o
1?
0@
0C
0&
0#
1"
1u
1r
1q
0o
0?
1A
1B
1E
1(
1%
1$
0"
#475000
b1011111 !
1W
0u
1t
0r
0B
1D
0E
0(
1'
0%
#480000
b1111111 !
b1101111 !
b1100111 !
b1100011 !
b1100001 !
b1100000 !
0W
0Z
0Y
0T
0V
1U
1X
1~
1m
0l
1h
0-!
0j
1c
0b
1_
1w
1f
1u
0t
1r
1.!
1N
1B
0D
1E
1"!
0m
1n
0d
1a
1(
0'
1%
11
0u
1s
0r
0q
1p
0.!
0N
1@
0A
0B
1C
0E
1!!
0~
0h
0n
1k
1j
0(
1&
0%
0$
1#
01
0'!
0&!
0s
0p
0@
0C
0H
0I
0"!
1m
0,
0+
0&
0#
1u
1r
1q
1A
1B
1E
1(
1%
1$
1'!
1&!
1t
0r
0q
0A
0B
1D
1H
1I
1,
1+
1'
0%
0$
#485000
b1100001 !
1W
0X
0u
0t
1r
1q
1p
1o
1?
1@
1A
1B
0D
0E
0(
0'
1%
1$
1#
1"
#490000
b1100011 !
b1100010 !
0W
1Z
1X
0m
0i
1u
1t
0r
0q
0p
0o
0?
0@
0A
0B
1D
1E
1n
0j
1(
1'
0%
0$
0#
0"
0t
1r
1q
1A
1B
0D
0'
1%
1$
0u
0r
0q
0A
0B
0E
0(
0%
0$
#495000
b1100011 !
1W
0X
1r
1q
1A
1B
1%
1$
#500000
b1100111 !
b1100101 !
b1100100 !
0W
0Z
1Y
1X
1m
1i
1-!
1"!
1{
0n
0k
0r
0q
0A
0B
00!
0/!
1}
0m
0%
0$
1s
1p
1.!
0'!
0&!
0H
0I
1N
1@
1C
1O
1S
1P
13
16
12
1&
1#
11
0,
0+
1$!
0s
0p
1o
1?
0@
0C
1F
1)
0&
0#
1"
#505000
b1100101 !
1W
0X
1u
1r
1q
1p
1@
1A
1B
1E
1(
1%
1$
1#
#510000
b1100111 !
b1100110 !
0W
1Z
1X
1l
0i
0u
0r
0q
0p
0@
0A
0B
0E
1m
0(
0%
0$
0#
1s
1p
0o
0?
1@
1C
1&
1#
0"
#515000
b1100111 !
1W
0X
0s
1q
1A
0C
0&
1$
#520000
b1101111 !
b1101011 !
b1101001 !
b1101000 !
0W
0Z
0Y
1T
0m
0l
1i
0"!
0{
1n
1k
0c
1b
0`
1s
0q
0A
1C
1m
0n
1j
10!
1/!
0}
1d
1&
0$
0s
0p
1*!
1'!
1&!
1%!
1G
1H
1I
1L
0@
0C
0O
0S
0P
0!!
1~
1{
0m
1h
03
06
02
0&
0#
1/
1,
1+
1*
1u
1t
0*!
0%!
0$!
0F
0G
0L
1D
1E
1"!
00!
0/!
1}
1(
1'
0/
0*
0)
0t
1r
1q
1A
1B
0D
1O
1S
1P
13
16
12
0'
1%
1$
0'!
0&!
1$!
1F
0H
0I
0,
0+
1)
#525000
b1101001 !
1W
0u
1t
0r
0B
1D
0E
0(
1'
0%
#530000
b1101011 !
b1101010 !
0W
1Z
0~
1m
0h
1u
0t
1r
1B
0D
1E
1(
0'
1%
1t
0r
0q
0A
0B
1D
1'
0%
0$
#535000
b1101011 !
1W
0u
0t
1r
1q
1p
1o
1?
1@
1A
1B
0D
0E
0(
0'
1%
1$
1#
1"
#540000
b1101111 !
b1101101 !
b1101100 !
0W
0Z
1Y
1~
0m
1h
0"!
0k
0j
1u
1t
0r
0q
0p
0o
0?
0@
0A
0B
1D
1E
1"!
1n
1(
1'
0%
0$
0#
0"
0u
0t
1o
1*!
1'!
1&!
1%!
1G
1H
1I
1L
1?
0D
0E
0(
0'
1"
1/
1,
1+
1*
0*!
0'!
0&!
0%!
0o
0?
0G
0H
0I
0L
0/
0,
0+
0*
0"
#545000
b1101101 !
1W
1r
1q
1A
1B
1%
1$
#550000
b1101111 !
b1101110 !
0W
1Z
0~
1l
0h
0r
0q
0A
0B
0"!
0n
0%
0$
1*!
1'!
1&!
1%!
1o
1?
1G
1H
1I
1L
1/
1,
1+
1*
1"
