Elevador_MovimentoV2/simulation/qsim/Elevador_MovimentoV2.msim.vcd
$comment
	File created using the following command:
		vcd file Elevador_MovimentoV2.msim.vcd -direction
$end
$date
	Tue May 23 21:58:42 2023
$end
$version
	ModelSim Version 10.5b
$end
$timescale
	1ps
$end

$scope module Elevador_MovimentoV2_vlg_vec_tst $end
$var reg 1 ! ACT $end
$var reg 1 " CLK $end
$var reg 1 # EN $end
$var wire 1 $ SA [2] $end
$var wire 1 % SA [1] $end
$var wire 1 & SA [0] $end
$var wire 1 ' SAS [2] $end
$var wire 1 ( SAS [1] $end
$var wire 1 ) SAS [0] $end

$scope module i1 $end
$var wire 1 * gnd $end
$var wire 1 + vcc $end
$var wire 1 , unknown $end
$var tri1 1 - devclrn $end
$var tri1 1 . devpor $end
$var tri1 1 / devoe $end
$var wire 1 0 SA[2]~output_o $end
$var wire 1 1 SA[1]~output_o $end
$var wire 1 2 SA[0]~output_o $end
$var wire 1 3 SAS[2]~output_o $end
$var wire 1 4 SAS[1]~output_o $end
$var wire 1 5 SAS[0]~output_o $end
$var wire 1 6 CLK~input_o $end
$var wire 1 7 CLK~inputclkctrl_outclk $end
$var wire 1 8 EN~input_o $end
$var wire 1 9 ACT~input_o $end
$var wire 1 : inst1|Selector4~0_combout $end
$var wire 1 ; inst1|fstate.A4~q $end
$var wire 1 < inst1|fstate.B~feeder_combout $end
$var wire 1 = inst1|fstate.B~q $end
$var wire 1 > inst1|Selector0~0_combout $end
$var wire 1 ? inst1|Selector0~1_combout $end
$var wire 1 @ inst1|fstate.T~q $end
$var wire 1 A inst1|Selector1~0_combout $end
$var wire 1 B inst1|Selector1~1_combout $end
$var wire 1 C inst1|fstate.A1~q $end
$var wire 1 D inst1|Selector2~0_combout $end
$var wire 1 E inst1|Selector2~1_combout $end
$var wire 1 F inst1|fstate.A2~q $end
$var wire 1 G inst1|Selector3~0_combout $end
$var wire 1 H inst1|Selector3~1_combout $end
$var wire 1 I inst1|fstate.A3~q $end
$var wire 1 J inst1|SA2~0_combout $end
$var wire 1 K inst1|SA1~0_combout $end
$var wire 1 L inst1|WideOr5~0_combout $end
$upscope $end
$upscope $end
$enddefinitions $end
#0
$dumpvars
0!
0"
1#
0&
0%
0$
0)
0(
0'
0*
1+
x,
1-
1.
1/
00
01
02
03
04
05
06
07
18
09
0:
0;
1<
0=
0>
1?
0@
0A
0B
0C
0D
0E
0F
0G
0H
0I
0J
0K
1L
$end
#20000
1"
16
17
1@
1=
1>
0L
0?
15
12
1&
1)
1?
#40000
1!
0"
19
06
07
1A
0>
1B
0?
#60000
0!
1"
09
16
17
0A
1>
0B
1?
1C
0@
1L
1K
11
14
05
02
0&
0)
1(
1%
#80000
1!
0"
19
06
07
1D
0>
1E
0?
#100000
0!
1"
09
16
17
0D
1>
0E
1?
1F
0C
1A
0L
0>
15
12
1&
1)
1B
0?
#120000
1!
0"
19
06
07
1G
0A
1H
0B
#140000
0!
1"
09
16
17
0G
1A
0H
1B
1I
0F
1L
1D
0A
1J
0K
01
04
10
13
05
02
0&
0)
1'
1$
0(
0%
1E
0B
#160000
1!
0"
19
06
07
0D
1:
0E
#180000
0!
1"
09
16
17
1D
0:
1E
0I
1;
0L
0D
1G
15
12
1&
1)
0E
1H
#200000
1!
0"
19
06
07
0G
1:
0H
#220000
0!
1"
09
16
17
1G
0:
1H
#240000
0"
06
07
#260000
1"
16
17
1I
0;
1L
1D
0G
05
02
0&
0)
1E
0H
#280000
0"
06
07
#300000
1"
16
17
0I
1F
0L
0D
1A
0J
1K
11
14
00
03
15
12
1&
1)
0'
0$
1(
1%
0E
1B
#320000
0"
06
07
#340000
1"
16
17
0F
1C
0A
1L
1>
05
02
0&
0)
0B
1?
#360000
0"
06
07
#380000
1"
16
17
0C
1@
0L
0K
01
04
15
12
1&
1)
0(
0%
#400000
0"
06
07
#420000
1"
16
17
#440000
0"
06
07
#460000
1"
16
17
#480000
0"
06
07
#500000
1"
16
17
#520000
0"
06
07
#540000
1"
16
17
#560000
0"
06
07
#580000
1"
16
17
#600000
0"
06
07
#620000
1"
16
17
#640000
0"
06
07
#660000
1"
16
17
#680000
0"
06
07
#700000
1"
16
17
#720000
0"
06
07
#740000
1"
16
17
#760000
0"
06
07
#780000
1"
16
17
#800000
0"
06
07
#820000
1"
16
17
#840000
0"
06
07
#860000
1"
16
17
#880000
0"
06
07
#900000
1"
16
17
#920000
0"
06
07
#940000
1"
16
17
#960000
0"
06
07
#980000
1"
16
17
