Elevador_MovimentoV2/simulation/qsim/Elevador_MovimentoV2.msim.vcd
$comment
	File created using the following command:
		vcd file Elevador_MovimentoV2.msim.vcd -direction
$end
$date
	Wed May 24 19:11:34 2023
$end
$version
	ModelSim Version 10.5b
$end
$timescale
	1ps
$end

$scope module Elevador_MovimentoV2_vlg_vec_tst $end
$var reg 1 ! ACT $end
$var reg 1 " CLK $end
$var reg 1 # EN $end
$var wire 1 $ SAS [2] $end
$var wire 1 % SAS [1] $end
$var wire 1 & SAS [0] $end
$var wire 1 ' SD [2] $end
$var wire 1 ( SD [1] $end
$var wire 1 ) SD [0] $end

$scope module i1 $end
$var wire 1 * gnd $end
$var wire 1 + vcc $end
$var wire 1 , unknown $end
$var tri1 1 - devclrn $end
$var tri1 1 . devpor $end
$var tri1 1 / devoe $end
$var wire 1 0 SAS[2]~output_o $end
$var wire 1 1 SAS[1]~output_o $end
$var wire 1 2 SAS[0]~output_o $end
$var wire 1 3 SD[2]~output_o $end
$var wire 1 4 SD[1]~output_o $end
$var wire 1 5 SD[0]~output_o $end
$var wire 1 6 CLK~input_o $end
$var wire 1 7 CLK~inputclkctrl_outclk $end
$var wire 1 8 ACT~input_o $end
$var wire 1 9 EN~input_o $end
$var wire 1 : inst1|Selector0~0_combout $end
$var wire 1 ; inst1|fstate.B~feeder_combout $end
$var wire 1 < inst1|fstate.B~q $end
$var wire 1 = inst1|Selector0~1_combout $end
$var wire 1 > inst1|fstate.T~q $end
$var wire 1 ? inst1|Selector1~0_combout $end
$var wire 1 @ inst1|Selector1~1_combout $end
$var wire 1 A inst1|fstate.A1~q $end
$var wire 1 B inst1|Selector2~0_combout $end
$var wire 1 C inst1|Selector2~1_combout $end
$var wire 1 D inst1|fstate.A2~q $end
$var wire 1 E inst1|Selector3~0_combout $end
$var wire 1 F inst1|Selector3~1_combout $end
$var wire 1 G inst1|fstate.A3~q $end
$var wire 1 H inst1|Selector4~0_combout $end
$var wire 1 I inst1|fstate.A4~q $end
$var wire 1 J inst1|SA2~0_combout $end
$var wire 1 K inst1|SA1~0_combout $end
$var wire 1 L inst1|WideOr5~0_combout $end
$var wire 1 M inst2|auto_generated|op_1~5_combout $end
$var wire 1 N inst4~0_combout $end
$var wire 1 O inst4~combout $end
$var wire 1 P inst2|auto_generated|op_1~4_combout $end
$var wire 1 Q inst2|auto_generated|pipeline_dffe [2] $end
$var wire 1 R inst2|auto_generated|pipeline_dffe [1] $end
$var wire 1 S inst2|auto_generated|pipeline_dffe [0] $end
$upscope $end
$upscope $end
$enddefinitions $end
#0
$dumpvars
0!
0"
1#
0&
0%
0$
0)
0(
0'
0*
1+
x,
1-
1.
1/
00
01
02
03
04
05
06
07
08
19
0:
1;
0<
1=
0>
0?
0@
0A
0B
0C
0D
0E
0F
0G
0H
0I
0J
0K
1L
1M
0N
0O
1P
0S
0R
0Q
$end
#20000
1"
16
17
1>
1<
1:
1N
0P
0L
0=
12
1O
1&
1=
0M
#40000
1!
0"
18
06
07
1?
0:
1@
0=
#60000
0!
1"
08
16
17
0?
1:
0@
1=
1A
0>
1L
1K
02
11
1%
0&
#80000
1!
0"
18
06
07
1B
0:
1C
0=
#100000
0!
1"
08
16
17
0B
1:
0C
1=
1D
0A
1S
15
1?
0:
1)
1P
0L
12
1&
1@
0=
#120000
1!
0"
18
06
07
1E
0?
1F
0@
#140000
0!
1"
08
16
17
0E
1?
0F
1@
1G
0D
0S
1R
14
05
1B
0?
0)
1(
1L
1J
0K
02
01
10
1$
0%
0&
1C
0@
#160000
1!
0"
18
06
07
0B
1H
0C
#180000
0!
1"
08
16
17
1B
0H
1C
1I
0G
1S
15
1E
0B
1)
0P
0L
12
1&
1F
0C
1M
#200000
1!
0"
18
06
07
0E
1H
0F
#220000
0!
1"
08
16
17
1E
0H
1F
0S
0R
1Q
13
04
05
0)
0(
1'
#240000
1!
0"
18
06
07
0E
1H
0F
#260000
0!
1"
08
16
17
1E
0H
1F
#280000
0"
06
07
#300000
1"
16
17
0I
1G
0E
1B
1P
1L
02
0&
0F
1C
0M
#320000
0"
06
07
#340000
1"
16
17
0G
1D
1S
1R
0Q
03
14
15
0B
1?
1)
1(
0'
0L
0J
1M
1K
12
11
00
0$
1%
1&
0C
1@
0M
#360000
0"
06
07
#380000
1"
16
17
0D
1A
0S
05
0?
1:
0)
0P
1L
02
0&
0@
1=
#400000
0"
06
07
#420000
1"
16
17
0A
1>
1S
0R
04
15
1)
0(
1M
0L
0K
12
01
0%
1&
0M
#440000
0"
06
07
#460000
1"
16
17
0S
05
0)
#480000
0"
06
07
#500000
1"
16
17
#520000
0"
06
07
#540000
1"
16
17
#560000
0"
06
07
#580000
1"
16
17
#600000
0"
06
07
#620000
1"
16
17
#640000
0"
06
07
#660000
1"
16
17
#680000
0"
06
07
#700000
1"
16
17
#720000
0"
06
07
#740000
1"
16
17
#760000
0"
06
07
#780000
1"
16
17
#800000
0"
06
07
#820000
1"
16
17
#840000
0"
06
07
#860000
1"
16
17
#880000
0"
06
07
#900000
1"
16
17
#920000
0"
06
07
#940000
1"
16
17
#960000
0"
06
07
#980000
1"
16
17
